%YAML 1.1
%TAG !u! tag:unity3d.com,2011:
--- !u!1 &7629954787591167128
GameObject:
  m_ObjectHideFlags: 0
  m_CorrespondingSourceObject: {fileID: 0}
  m_PrefabInstance: {fileID: 0}
  m_PrefabAsset: {fileID: 0}
  serializedVersion: 6
  m_Component:
  - component: {fileID: 8637606315999378471}
  - component: {fileID: 6852554634295652357}
  - component: {fileID: 3274648055540863875}
  m_Layer: 31
  m_Name: Layer1
  m_TagString: Untagged
  m_Icon: {fileID: 0}
  m_NavMeshLayer: 0
  m_StaticEditorFlags: 0
  m_IsActive: 1
--- !u!4 &8637606315999378471
Transform:
  m_ObjectHideFlags: 0
  m_CorrespondingSourceObject: {fileID: 0}
  m_PrefabInstance: {fileID: 0}
  m_PrefabAsset: {fileID: 0}
  m_GameObject: {fileID: 7629954787591167128}
  m_LocalRotation: {x: -0, y: -0, z: -0, w: 1}
  m_LocalPosition: {x: 0, y: 0, z: 0}
  m_LocalScale: {x: 1, y: 1, z: 1}
  m_Children: []
  m_Father: {fileID: 195592254174740311}
  m_RootOrder: 0
  m_LocalEulerAnglesHint: {x: 0, y: 0, z: 0}
--- !u!1839735485 &6852554634295652357
Tilemap:
  m_ObjectHideFlags: 0
  m_CorrespondingSourceObject: {fileID: 0}
  m_PrefabInstance: {fileID: 0}
  m_PrefabAsset: {fileID: 0}
  m_GameObject: {fileID: 7629954787591167128}
  m_Enabled: 1
  m_Tiles:
  - first: {x: 6, y: -16, z: 0}
    second:
      serializedVersion: 2
      m_TileIndex: 153
      m_TileSpriteIndex: 153
      m_TileMatrixIndex: 0
      m_TileColorIndex: 0
      m_TileObjectToInstantiateIndex: 65535
      m_AllTileFlags: 1073741825
  - first: {x: -1, y: -15, z: 0}
    second:
      serializedVersion: 2
      m_TileIndex: 148
      m_TileSpriteIndex: 147
      m_TileMatrixIndex: 0
      m_TileColorIndex: 0
      m_TileObjectToInstantiateIndex: 65535
      m_AllTileFlags: 1073741825
  - first: {x: 0, y: -15, z: 0}
    second:
      serializedVersion: 2
      m_TileIndex: 149
      m_TileSpriteIndex: 148
      m_TileMatrixIndex: 0
      m_TileColorIndex: 0
      m_TileObjectToInstantiateIndex: 65535
      m_AllTileFlags: 1073741825
  - first: {x: 1, y: -15, z: 0}
    second:
      serializedVersion: 2
      m_TileIndex: 150
      m_TileSpriteIndex: 149
      m_TileMatrixIndex: 0
      m_TileColorIndex: 0
      m_TileObjectToInstantiateIndex: 65535
      m_AllTileFlags: 1073741825
  - first: {x: 2, y: -15, z: 0}
    second:
      serializedVersion: 2
      m_TileIndex: 151
      m_TileSpriteIndex: 150
      m_TileMatrixIndex: 0
      m_TileColorIndex: 0
      m_TileObjectToInstantiateIndex: 65535
      m_AllTileFlags: 1073741825
  - first: {x: 3, y: -14, z: 0}
    second:
      serializedVersion: 2
      m_TileIndex: 144
      m_TileSpriteIndex: 144
      m_TileMatrixIndex: 0
      m_TileColorIndex: 1
      m_TileObjectToInstantiateIndex: 65535
      m_AllTileFlags: 1073741827
  - first: {x: 4, y: -14, z: 0}
    second:
      serializedVersion: 2
      m_TileIndex: 145
      m_TileSpriteIndex: 151
      m_TileMatrixIndex: 0
      m_TileColorIndex: 2
      m_TileObjectToInstantiateIndex: 65535
      m_AllTileFlags: 1073741827
  - first: {x: -3, y: -13, z: 0}
    second:
      serializedVersion: 2
      m_TileIndex: 152
      m_TileSpriteIndex: 152
      m_TileMatrixIndex: 0
      m_TileColorIndex: 0
      m_TileObjectToInstantiateIndex: 65535
      m_AllTileFlags: 1073741825
  - first: {x: -2, y: -10, z: 0}
    second:
      serializedVersion: 2
      m_TileIndex: 132
      m_TileSpriteIndex: 132
      m_TileMatrixIndex: 0
      m_TileColorIndex: 0
      m_TileObjectToInstantiateIndex: 65535
      m_AllTileFlags: 1073741825
  - first: {x: -1, y: -10, z: 0}
    second:
      serializedVersion: 2
      m_TileIndex: 133
      m_TileSpriteIndex: 133
      m_TileMatrixIndex: 0
      m_TileColorIndex: 0
      m_TileObjectToInstantiateIndex: 65535
      m_AllTileFlags: 1073741825
  - first: {x: 0, y: -10, z: 0}
    second:
      serializedVersion: 2
      m_TileIndex: 134
      m_TileSpriteIndex: 134
      m_TileMatrixIndex: 0
      m_TileColorIndex: 0
      m_TileObjectToInstantiateIndex: 65535
      m_AllTileFlags: 1073741825
  - first: {x: 4, y: -10, z: 0}
    second:
      serializedVersion: 2
      m_TileIndex: 135
      m_TileSpriteIndex: 135
      m_TileMatrixIndex: 0
      m_TileColorIndex: 0
      m_TileObjectToInstantiateIndex: 65535
      m_AllTileFlags: 1073741825
  - first: {x: 5, y: -10, z: 0}
    second:
      serializedVersion: 2
      m_TileIndex: 136
      m_TileSpriteIndex: 136
      m_TileMatrixIndex: 0
      m_TileColorIndex: 0
      m_TileObjectToInstantiateIndex: 65535
      m_AllTileFlags: 1073741825
  - first: {x: 6, y: -10, z: 0}
    second:
      serializedVersion: 2
      m_TileIndex: 137
      m_TileSpriteIndex: 137
      m_TileMatrixIndex: 0
      m_TileColorIndex: 0
      m_TileObjectToInstantiateIndex: 65535
      m_AllTileFlags: 1073741825
  - first: {x: 11, y: -10, z: 0}
    second:
      serializedVersion: 2
      m_TileIndex: 138
      m_TileSpriteIndex: 138
      m_TileMatrixIndex: 0
      m_TileColorIndex: 0
      m_TileObjectToInstantiateIndex: 65535
      m_AllTileFlags: 1073741825
  - first: {x: 12, y: -10, z: 0}
    second:
      serializedVersion: 2
      m_TileIndex: 139
      m_TileSpriteIndex: 139
      m_TileMatrixIndex: 0
      m_TileColorIndex: 0
      m_TileObjectToInstantiateIndex: 65535
      m_AllTileFlags: 1073741825
  - first: {x: 13, y: -10, z: 0}
    second:
      serializedVersion: 2
      m_TileIndex: 140
      m_TileSpriteIndex: 140
      m_TileMatrixIndex: 0
      m_TileColorIndex: 0
      m_TileObjectToInstantiateIndex: 65535
      m_AllTileFlags: 1073741825
  - first: {x: 16, y: -10, z: 0}
    second:
      serializedVersion: 2
      m_TileIndex: 141
      m_TileSpriteIndex: 141
      m_TileMatrixIndex: 0
      m_TileColorIndex: 0
      m_TileObjectToInstantiateIndex: 65535
      m_AllTileFlags: 1073741825
  - first: {x: 17, y: -10, z: 0}
    second:
      serializedVersion: 2
      m_TileIndex: 142
      m_TileSpriteIndex: 142
      m_TileMatrixIndex: 0
      m_TileColorIndex: 0
      m_TileObjectToInstantiateIndex: 65535
      m_AllTileFlags: 1073741825
  - first: {x: 18, y: -10, z: 0}
    second:
      serializedVersion: 2
      m_TileIndex: 143
      m_TileSpriteIndex: 143
      m_TileMatrixIndex: 0
      m_TileColorIndex: 0
      m_TileObjectToInstantiateIndex: 65535
      m_AllTileFlags: 1073741825
  - first: {x: -2, y: -9, z: 0}
    second:
      serializedVersion: 2
      m_TileIndex: 114
      m_TileSpriteIndex: 114
      m_TileMatrixIndex: 0
      m_TileColorIndex: 0
      m_TileObjectToInstantiateIndex: 65535
      m_AllTileFlags: 1073741825
  - first: {x: -1, y: -9, z: 0}
    second:
      serializedVersion: 2
      m_TileIndex: 115
      m_TileSpriteIndex: 115
      m_TileMatrixIndex: 0
      m_TileColorIndex: 0
      m_TileObjectToInstantiateIndex: 65535
      m_AllTileFlags: 1073741825
  - first: {x: 0, y: -9, z: 0}
    second:
      serializedVersion: 2
      m_TileIndex: 116
      m_TileSpriteIndex: 116
      m_TileMatrixIndex: 0
      m_TileColorIndex: 0
      m_TileObjectToInstantiateIndex: 65535
      m_AllTileFlags: 1073741825
  - first: {x: 1, y: -9, z: 0}
    second:
      serializedVersion: 2
      m_TileIndex: 117
      m_TileSpriteIndex: 117
      m_TileMatrixIndex: 0
      m_TileColorIndex: 0
      m_TileObjectToInstantiateIndex: 65535
      m_AllTileFlags: 1073741825
  - first: {x: 2, y: -9, z: 0}
    second:
      serializedVersion: 2
      m_TileIndex: 118
      m_TileSpriteIndex: 118
      m_TileMatrixIndex: 0
      m_TileColorIndex: 0
      m_TileObjectToInstantiateIndex: 65535
      m_AllTileFlags: 1073741825
  - first: {x: 4, y: -9, z: 0}
    second:
      serializedVersion: 2
      m_TileIndex: 119
      m_TileSpriteIndex: 119
      m_TileMatrixIndex: 0
      m_TileColorIndex: 0
      m_TileObjectToInstantiateIndex: 65535
      m_AllTileFlags: 1073741825
  - first: {x: 5, y: -9, z: 0}
    second:
      serializedVersion: 2
      m_TileIndex: 120
      m_TileSpriteIndex: 120
      m_TileMatrixIndex: 0
      m_TileColorIndex: 0
      m_TileObjectToInstantiateIndex: 65535
      m_AllTileFlags: 1073741825
  - first: {x: 6, y: -9, z: 0}
    second:
      serializedVersion: 2
      m_TileIndex: 121
      m_TileSpriteIndex: 121
      m_TileMatrixIndex: 0
      m_TileColorIndex: 0
      m_TileObjectToInstantiateIndex: 65535
      m_AllTileFlags: 1073741825
  - first: {x: 7, y: -9, z: 0}
    second:
      serializedVersion: 2
      m_TileIndex: 122
      m_TileSpriteIndex: 122
      m_TileMatrixIndex: 0
      m_TileColorIndex: 0
      m_TileObjectToInstantiateIndex: 65535
      m_AllTileFlags: 1073741825
  - first: {x: 8, y: -9, z: 0}
    second:
      serializedVersion: 2
      m_TileIndex: 123
      m_TileSpriteIndex: 123
      m_TileMatrixIndex: 0
      m_TileColorIndex: 0
      m_TileObjectToInstantiateIndex: 65535
      m_AllTileFlags: 1073741825
  - first: {x: 10, y: -9, z: 0}
    second:
      serializedVersion: 2
      m_TileIndex: 124
      m_TileSpriteIndex: 124
      m_TileMatrixIndex: 0
      m_TileColorIndex: 0
      m_TileObjectToInstantiateIndex: 65535
      m_AllTileFlags: 1073741825
  - first: {x: 11, y: -9, z: 0}
    second:
      serializedVersion: 2
      m_TileIndex: 125
      m_TileSpriteIndex: 125
      m_TileMatrixIndex: 0
      m_TileColorIndex: 0
      m_TileObjectToInstantiateIndex: 65535
      m_AllTileFlags: 1073741825
  - first: {x: 12, y: -9, z: 0}
    second:
      serializedVersion: 2
      m_TileIndex: 126
      m_TileSpriteIndex: 126
      m_TileMatrixIndex: 0
      m_TileColorIndex: 0
      m_TileObjectToInstantiateIndex: 65535
      m_AllTileFlags: 1073741825
  - first: {x: 13, y: -9, z: 0}
    second:
      serializedVersion: 2
      m_TileIndex: 127
      m_TileSpriteIndex: 127
      m_TileMatrixIndex: 0
      m_TileColorIndex: 0
      m_TileObjectToInstantiateIndex: 65535
      m_AllTileFlags: 1073741825
  - first: {x: 15, y: -9, z: 0}
    second:
      serializedVersion: 2
      m_TileIndex: 128
      m_TileSpriteIndex: 128
      m_TileMatrixIndex: 0
      m_TileColorIndex: 0
      m_TileObjectToInstantiateIndex: 65535
      m_AllTileFlags: 1073741825
  - first: {x: 16, y: -9, z: 0}
    second:
      serializedVersion: 2
      m_TileIndex: 129
      m_TileSpriteIndex: 129
      m_TileMatrixIndex: 0
      m_TileColorIndex: 0
      m_TileObjectToInstantiateIndex: 65535
      m_AllTileFlags: 1073741825
  - first: {x: 17, y: -9, z: 0}
    second:
      serializedVersion: 2
      m_TileIndex: 130
      m_TileSpriteIndex: 130
      m_TileMatrixIndex: 0
      m_TileColorIndex: 0
      m_TileObjectToInstantiateIndex: 65535
      m_AllTileFlags: 1073741825
  - first: {x: 18, y: -9, z: 0}
    second:
      serializedVersion: 2
      m_TileIndex: 131
      m_TileSpriteIndex: 131
      m_TileMatrixIndex: 0
      m_TileColorIndex: 0
      m_TileObjectToInstantiateIndex: 65535
      m_AllTileFlags: 1073741825
  - first: {x: -2, y: -8, z: 0}
    second:
      serializedVersion: 2
      m_TileIndex: 96
      m_TileSpriteIndex: 96
      m_TileMatrixIndex: 0
      m_TileColorIndex: 0
      m_TileObjectToInstantiateIndex: 65535
      m_AllTileFlags: 1073741825
  - first: {x: -1, y: -8, z: 0}
    second:
      serializedVersion: 2
      m_TileIndex: 97
      m_TileSpriteIndex: 97
      m_TileMatrixIndex: 0
      m_TileColorIndex: 0
      m_TileObjectToInstantiateIndex: 65535
      m_AllTileFlags: 1073741825
  - first: {x: 0, y: -8, z: 0}
    second:
      serializedVersion: 2
      m_TileIndex: 98
      m_TileSpriteIndex: 98
      m_TileMatrixIndex: 0
      m_TileColorIndex: 0
      m_TileObjectToInstantiateIndex: 65535
      m_AllTileFlags: 1073741825
  - first: {x: 1, y: -8, z: 0}
    second:
      serializedVersion: 2
      m_TileIndex: 99
      m_TileSpriteIndex: 99
      m_TileMatrixIndex: 0
      m_TileColorIndex: 0
      m_TileObjectToInstantiateIndex: 65535
      m_AllTileFlags: 1073741825
  - first: {x: 2, y: -8, z: 0}
    second:
      serializedVersion: 2
      m_TileIndex: 100
      m_TileSpriteIndex: 100
      m_TileMatrixIndex: 0
      m_TileColorIndex: 0
      m_TileObjectToInstantiateIndex: 65535
      m_AllTileFlags: 1073741825
  - first: {x: 4, y: -8, z: 0}
    second:
      serializedVersion: 2
      m_TileIndex: 101
      m_TileSpriteIndex: 101
      m_TileMatrixIndex: 0
      m_TileColorIndex: 0
      m_TileObjectToInstantiateIndex: 65535
      m_AllTileFlags: 1073741825
  - first: {x: 5, y: -8, z: 0}
    second:
      serializedVersion: 2
      m_TileIndex: 102
      m_TileSpriteIndex: 102
      m_TileMatrixIndex: 0
      m_TileColorIndex: 0
      m_TileObjectToInstantiateIndex: 65535
      m_AllTileFlags: 1073741825
  - first: {x: 6, y: -8, z: 0}
    second:
      serializedVersion: 2
      m_TileIndex: 103
      m_TileSpriteIndex: 103
      m_TileMatrixIndex: 0
      m_TileColorIndex: 0
      m_TileObjectToInstantiateIndex: 65535
      m_AllTileFlags: 1073741825
  - first: {x: 7, y: -8, z: 0}
    second:
      serializedVersion: 2
      m_TileIndex: 104
      m_TileSpriteIndex: 104
      m_TileMatrixIndex: 0
      m_TileColorIndex: 0
      m_TileObjectToInstantiateIndex: 65535
      m_AllTileFlags: 1073741825
  - first: {x: 8, y: -8, z: 0}
    second:
      serializedVersion: 2
      m_TileIndex: 105
      m_TileSpriteIndex: 105
      m_TileMatrixIndex: 0
      m_TileColorIndex: 0
      m_TileObjectToInstantiateIndex: 65535
      m_AllTileFlags: 1073741825
  - first: {x: 10, y: -8, z: 0}
    second:
      serializedVersion: 2
      m_TileIndex: 106
      m_TileSpriteIndex: 106
      m_TileMatrixIndex: 0
      m_TileColorIndex: 0
      m_TileObjectToInstantiateIndex: 65535
      m_AllTileFlags: 1073741825
  - first: {x: 11, y: -8, z: 0}
    second:
      serializedVersion: 2
      m_TileIndex: 107
      m_TileSpriteIndex: 107
      m_TileMatrixIndex: 0
      m_TileColorIndex: 0
      m_TileObjectToInstantiateIndex: 65535
      m_AllTileFlags: 1073741825
  - first: {x: 12, y: -8, z: 0}
    second:
      serializedVersion: 2
      m_TileIndex: 108
      m_TileSpriteIndex: 108
      m_TileMatrixIndex: 0
      m_TileColorIndex: 0
      m_TileObjectToInstantiateIndex: 65535
      m_AllTileFlags: 1073741825
  - first: {x: 13, y: -8, z: 0}
    second:
      serializedVersion: 2
      m_TileIndex: 109
      m_TileSpriteIndex: 109
      m_TileMatrixIndex: 0
      m_TileColorIndex: 0
      m_TileObjectToInstantiateIndex: 65535
      m_AllTileFlags: 1073741825
  - first: {x: 15, y: -8, z: 0}
    second:
      serializedVersion: 2
      m_TileIndex: 110
      m_TileSpriteIndex: 110
      m_TileMatrixIndex: 0
      m_TileColorIndex: 0
      m_TileObjectToInstantiateIndex: 65535
      m_AllTileFlags: 1073741825
  - first: {x: 16, y: -8, z: 0}
    second:
      serializedVersion: 2
      m_TileIndex: 111
      m_TileSpriteIndex: 111
      m_TileMatrixIndex: 0
      m_TileColorIndex: 0
      m_TileObjectToInstantiateIndex: 65535
      m_AllTileFlags: 1073741825
  - first: {x: 17, y: -8, z: 0}
    second:
      serializedVersion: 2
      m_TileIndex: 112
      m_TileSpriteIndex: 112
      m_TileMatrixIndex: 0
      m_TileColorIndex: 0
      m_TileObjectToInstantiateIndex: 65535
      m_AllTileFlags: 1073741825
  - first: {x: 18, y: -8, z: 0}
    second:
      serializedVersion: 2
      m_TileIndex: 113
      m_TileSpriteIndex: 113
      m_TileMatrixIndex: 0
      m_TileColorIndex: 0
      m_TileObjectToInstantiateIndex: 65535
      m_AllTileFlags: 1073741825
  - first: {x: -2, y: -6, z: 0}
    second:
      serializedVersion: 2
      m_TileIndex: 84
      m_TileSpriteIndex: 84
      m_TileMatrixIndex: 0
      m_TileColorIndex: 0
      m_TileObjectToInstantiateIndex: 65535
      m_AllTileFlags: 1073741825
  - first: {x: -1, y: -6, z: 0}
    second:
      serializedVersion: 2
      m_TileIndex: 85
      m_TileSpriteIndex: 85
      m_TileMatrixIndex: 0
      m_TileColorIndex: 0
      m_TileObjectToInstantiateIndex: 65535
      m_AllTileFlags: 1073741825
  - first: {x: 0, y: -6, z: 0}
    second:
      serializedVersion: 2
      m_TileIndex: 86
      m_TileSpriteIndex: 86
      m_TileMatrixIndex: 0
      m_TileColorIndex: 0
      m_TileObjectToInstantiateIndex: 65535
      m_AllTileFlags: 1073741825
  - first: {x: 4, y: -6, z: 0}
    second:
      serializedVersion: 2
      m_TileIndex: 87
      m_TileSpriteIndex: 87
      m_TileMatrixIndex: 0
      m_TileColorIndex: 0
      m_TileObjectToInstantiateIndex: 65535
      m_AllTileFlags: 1073741825
  - first: {x: 5, y: -6, z: 0}
    second:
      serializedVersion: 2
      m_TileIndex: 88
      m_TileSpriteIndex: 88
      m_TileMatrixIndex: 0
      m_TileColorIndex: 0
      m_TileObjectToInstantiateIndex: 65535
      m_AllTileFlags: 1073741825
  - first: {x: 6, y: -6, z: 0}
    second:
      serializedVersion: 2
      m_TileIndex: 89
      m_TileSpriteIndex: 89
      m_TileMatrixIndex: 0
      m_TileColorIndex: 0
      m_TileObjectToInstantiateIndex: 65535
      m_AllTileFlags: 1073741825
  - first: {x: 11, y: -6, z: 0}
    second:
      serializedVersion: 2
      m_TileIndex: 90
      m_TileSpriteIndex: 90
      m_TileMatrixIndex: 0
      m_TileColorIndex: 0
      m_TileObjectToInstantiateIndex: 65535
      m_AllTileFlags: 1073741825
  - first: {x: 12, y: -6, z: 0}
    second:
      serializedVersion: 2
      m_TileIndex: 91
      m_TileSpriteIndex: 91
      m_TileMatrixIndex: 0
      m_TileColorIndex: 0
      m_TileObjectToInstantiateIndex: 65535
      m_AllTileFlags: 1073741825
  - first: {x: 13, y: -6, z: 0}
    second:
      serializedVersion: 2
      m_TileIndex: 92
      m_TileSpriteIndex: 92
      m_TileMatrixIndex: 0
      m_TileColorIndex: 0
      m_TileObjectToInstantiateIndex: 65535
      m_AllTileFlags: 1073741825
  - first: {x: 15, y: -6, z: 0}
    second:
      serializedVersion: 2
      m_TileIndex: 93
      m_TileSpriteIndex: 93
      m_TileMatrixIndex: 0
      m_TileColorIndex: 0
      m_TileObjectToInstantiateIndex: 65535
      m_AllTileFlags: 1073741825
  - first: {x: 16, y: -6, z: 0}
    second:
      serializedVersion: 2
      m_TileIndex: 94
      m_TileSpriteIndex: 94
      m_TileMatrixIndex: 0
      m_TileColorIndex: 0
      m_TileObjectToInstantiateIndex: 65535
      m_AllTileFlags: 1073741825
  - first: {x: 17, y: -6, z: 0}
    second:
      serializedVersion: 2
      m_TileIndex: 95
      m_TileSpriteIndex: 95
      m_TileMatrixIndex: 0
      m_TileColorIndex: 0
      m_TileObjectToInstantiateIndex: 65535
      m_AllTileFlags: 1073741825
  - first: {x: -2, y: -5, z: 0}
    second:
      serializedVersion: 2
      m_TileIndex: 65
      m_TileSpriteIndex: 65
      m_TileMatrixIndex: 0
      m_TileColorIndex: 0
      m_TileObjectToInstantiateIndex: 65535
      m_AllTileFlags: 1073741825
  - first: {x: -1, y: -5, z: 0}
    second:
      serializedVersion: 2
      m_TileIndex: 66
      m_TileSpriteIndex: 66
      m_TileMatrixIndex: 0
      m_TileColorIndex: 0
      m_TileObjectToInstantiateIndex: 65535
      m_AllTileFlags: 1073741825
  - first: {x: 0, y: -5, z: 0}
    second:
      serializedVersion: 2
      m_TileIndex: 67
      m_TileSpriteIndex: 67
      m_TileMatrixIndex: 0
      m_TileColorIndex: 0
      m_TileObjectToInstantiateIndex: 65535
      m_AllTileFlags: 1073741825
  - first: {x: 1, y: -5, z: 0}
    second:
      serializedVersion: 2
      m_TileIndex: 68
      m_TileSpriteIndex: 68
      m_TileMatrixIndex: 0
      m_TileColorIndex: 0
      m_TileObjectToInstantiateIndex: 65535
      m_AllTileFlags: 1073741825
  - first: {x: 2, y: -5, z: 0}
    second:
      serializedVersion: 2
      m_TileIndex: 69
      m_TileSpriteIndex: 69
      m_TileMatrixIndex: 0
      m_TileColorIndex: 0
      m_TileObjectToInstantiateIndex: 65535
      m_AllTileFlags: 1073741825
  - first: {x: 4, y: -5, z: 0}
    second:
      serializedVersion: 2
      m_TileIndex: 70
      m_TileSpriteIndex: 70
      m_TileMatrixIndex: 0
      m_TileColorIndex: 0
      m_TileObjectToInstantiateIndex: 65535
      m_AllTileFlags: 1073741825
  - first: {x: 5, y: -5, z: 0}
    second:
      serializedVersion: 2
      m_TileIndex: 71
      m_TileSpriteIndex: 71
      m_TileMatrixIndex: 0
      m_TileColorIndex: 0
      m_TileObjectToInstantiateIndex: 65535
      m_AllTileFlags: 1073741825
  - first: {x: 6, y: -5, z: 0}
    second:
      serializedVersion: 2
      m_TileIndex: 72
      m_TileSpriteIndex: 72
      m_TileMatrixIndex: 0
      m_TileColorIndex: 0
      m_TileObjectToInstantiateIndex: 65535
      m_AllTileFlags: 1073741825
  - first: {x: 7, y: -5, z: 0}
    second:
      serializedVersion: 2
      m_TileIndex: 73
      m_TileSpriteIndex: 73
      m_TileMatrixIndex: 0
      m_TileColorIndex: 0
      m_TileObjectToInstantiateIndex: 65535
      m_AllTileFlags: 1073741825
  - first: {x: 8, y: -5, z: 0}
    second:
      serializedVersion: 2
      m_TileIndex: 74
      m_TileSpriteIndex: 74
      m_TileMatrixIndex: 0
      m_TileColorIndex: 0
      m_TileObjectToInstantiateIndex: 65535
      m_AllTileFlags: 1073741825
  - first: {x: 10, y: -5, z: 0}
    second:
      serializedVersion: 2
      m_TileIndex: 75
      m_TileSpriteIndex: 75
      m_TileMatrixIndex: 0
      m_TileColorIndex: 0
      m_TileObjectToInstantiateIndex: 65535
      m_AllTileFlags: 1073741825
  - first: {x: 11, y: -5, z: 0}
    second:
      serializedVersion: 2
      m_TileIndex: 76
      m_TileSpriteIndex: 76
      m_TileMatrixIndex: 0
      m_TileColorIndex: 0
      m_TileObjectToInstantiateIndex: 65535
      m_AllTileFlags: 1073741825
  - first: {x: 12, y: -5, z: 0}
    second:
      serializedVersion: 2
      m_TileIndex: 77
      m_TileSpriteIndex: 77
      m_TileMatrixIndex: 0
      m_TileColorIndex: 0
      m_TileObjectToInstantiateIndex: 65535
      m_AllTileFlags: 1073741825
  - first: {x: 13, y: -5, z: 0}
    second:
      serializedVersion: 2
      m_TileIndex: 78
      m_TileSpriteIndex: 78
      m_TileMatrixIndex: 0
      m_TileColorIndex: 0
      m_TileObjectToInstantiateIndex: 65535
      m_AllTileFlags: 1073741825
  - first: {x: 15, y: -5, z: 0}
    second:
      serializedVersion: 2
      m_TileIndex: 79
      m_TileSpriteIndex: 79
      m_TileMatrixIndex: 0
      m_TileColorIndex: 0
      m_TileObjectToInstantiateIndex: 65535
      m_AllTileFlags: 1073741825
  - first: {x: 16, y: -5, z: 0}
    second:
      serializedVersion: 2
      m_TileIndex: 80
      m_TileSpriteIndex: 80
      m_TileMatrixIndex: 0
      m_TileColorIndex: 0
      m_TileObjectToInstantiateIndex: 65535
      m_AllTileFlags: 1073741825
  - first: {x: 17, y: -5, z: 0}
    second:
      serializedVersion: 2
      m_TileIndex: 81
      m_TileSpriteIndex: 81
      m_TileMatrixIndex: 0
      m_TileColorIndex: 0
      m_TileObjectToInstantiateIndex: 65535
      m_AllTileFlags: 1073741825
  - first: {x: 18, y: -5, z: 0}
    second:
      serializedVersion: 2
      m_TileIndex: 82
      m_TileSpriteIndex: 82
      m_TileMatrixIndex: 0
      m_TileColorIndex: 0
      m_TileObjectToInstantiateIndex: 65535
      m_AllTileFlags: 1073741825
  - first: {x: 19, y: -5, z: 0}
    second:
      serializedVersion: 2
      m_TileIndex: 83
      m_TileSpriteIndex: 83
      m_TileMatrixIndex: 0
      m_TileColorIndex: 0
      m_TileObjectToInstantiateIndex: 65535
      m_AllTileFlags: 1073741825
  - first: {x: -2, y: -4, z: 0}
    second:
      serializedVersion: 2
      m_TileIndex: 46
      m_TileSpriteIndex: 46
      m_TileMatrixIndex: 0
      m_TileColorIndex: 0
      m_TileObjectToInstantiateIndex: 65535
      m_AllTileFlags: 1073741825
  - first: {x: -1, y: -4, z: 0}
    second:
      serializedVersion: 2
      m_TileIndex: 47
      m_TileSpriteIndex: 47
      m_TileMatrixIndex: 0
      m_TileColorIndex: 0
      m_TileObjectToInstantiateIndex: 65535
      m_AllTileFlags: 1073741825
  - first: {x: 0, y: -4, z: 0}
    second:
      serializedVersion: 2
      m_TileIndex: 48
      m_TileSpriteIndex: 48
      m_TileMatrixIndex: 0
      m_TileColorIndex: 0
      m_TileObjectToInstantiateIndex: 65535
      m_AllTileFlags: 1073741825
  - first: {x: 1, y: -4, z: 0}
    second:
      serializedVersion: 2
      m_TileIndex: 49
      m_TileSpriteIndex: 49
      m_TileMatrixIndex: 0
      m_TileColorIndex: 0
      m_TileObjectToInstantiateIndex: 65535
      m_AllTileFlags: 1073741825
  - first: {x: 2, y: -4, z: 0}
    second:
      serializedVersion: 2
      m_TileIndex: 50
      m_TileSpriteIndex: 50
      m_TileMatrixIndex: 0
      m_TileColorIndex: 0
      m_TileObjectToInstantiateIndex: 65535
      m_AllTileFlags: 1073741825
  - first: {x: 4, y: -4, z: 0}
    second:
      serializedVersion: 2
      m_TileIndex: 51
      m_TileSpriteIndex: 51
      m_TileMatrixIndex: 0
      m_TileColorIndex: 0
      m_TileObjectToInstantiateIndex: 65535
      m_AllTileFlags: 1073741825
  - first: {x: 5, y: -4, z: 0}
    second:
      serializedVersion: 2
      m_TileIndex: 52
      m_TileSpriteIndex: 52
      m_TileMatrixIndex: 0
      m_TileColorIndex: 0
      m_TileObjectToInstantiateIndex: 65535
      m_AllTileFlags: 1073741825
  - first: {x: 6, y: -4, z: 0}
    second:
      serializedVersion: 2
      m_TileIndex: 53
      m_TileSpriteIndex: 53
      m_TileMatrixIndex: 0
      m_TileColorIndex: 0
      m_TileObjectToInstantiateIndex: 65535
      m_AllTileFlags: 1073741825
  - first: {x: 7, y: -4, z: 0}
    second:
      serializedVersion: 2
      m_TileIndex: 54
      m_TileSpriteIndex: 54
      m_TileMatrixIndex: 0
      m_TileColorIndex: 0
      m_TileObjectToInstantiateIndex: 65535
      m_AllTileFlags: 1073741825
  - first: {x: 8, y: -4, z: 0}
    second:
      serializedVersion: 2
      m_TileIndex: 55
      m_TileSpriteIndex: 55
      m_TileMatrixIndex: 0
      m_TileColorIndex: 0
      m_TileObjectToInstantiateIndex: 65535
      m_AllTileFlags: 1073741825
  - first: {x: 10, y: -4, z: 0}
    second:
      serializedVersion: 2
      m_TileIndex: 56
      m_TileSpriteIndex: 56
      m_TileMatrixIndex: 0
      m_TileColorIndex: 0
      m_TileObjectToInstantiateIndex: 65535
      m_AllTileFlags: 1073741825
  - first: {x: 11, y: -4, z: 0}
    second:
      serializedVersion: 2
      m_TileIndex: 57
      m_TileSpriteIndex: 57
      m_TileMatrixIndex: 0
      m_TileColorIndex: 0
      m_TileObjectToInstantiateIndex: 65535
      m_AllTileFlags: 1073741825
  - first: {x: 12, y: -4, z: 0}
    second:
      serializedVersion: 2
      m_TileIndex: 58
      m_TileSpriteIndex: 58
      m_TileMatrixIndex: 0
      m_TileColorIndex: 0
      m_TileObjectToInstantiateIndex: 65535
      m_AllTileFlags: 1073741825
  - first: {x: 13, y: -4, z: 0}
    second:
      serializedVersion: 2
      m_TileIndex: 59
      m_TileSpriteIndex: 59
      m_TileMatrixIndex: 0
      m_TileColorIndex: 0
      m_TileObjectToInstantiateIndex: 65535
      m_AllTileFlags: 1073741825
  - first: {x: 15, y: -4, z: 0}
    second:
      serializedVersion: 2
      m_TileIndex: 60
      m_TileSpriteIndex: 60
      m_TileMatrixIndex: 0
      m_TileColorIndex: 0
      m_TileObjectToInstantiateIndex: 65535
      m_AllTileFlags: 1073741825
  - first: {x: 16, y: -4, z: 0}
    second:
      serializedVersion: 2
      m_TileIndex: 61
      m_TileSpriteIndex: 61
      m_TileMatrixIndex: 0
      m_TileColorIndex: 0
      m_TileObjectToInstantiateIndex: 65535
      m_AllTileFlags: 1073741825
  - first: {x: 17, y: -4, z: 0}
    second:
      serializedVersion: 2
      m_TileIndex: 62
      m_TileSpriteIndex: 62
      m_TileMatrixIndex: 0
      m_TileColorIndex: 0
      m_TileObjectToInstantiateIndex: 65535
      m_AllTileFlags: 1073741825
  - first: {x: 18, y: -4, z: 0}
    second:
      serializedVersion: 2
      m_TileIndex: 63
      m_TileSpriteIndex: 63
      m_TileMatrixIndex: 0
      m_TileColorIndex: 0
      m_TileObjectToInstantiateIndex: 65535
      m_AllTileFlags: 1073741825
  - first: {x: 19, y: -4, z: 0}
    second:
      serializedVersion: 2
      m_TileIndex: 64
      m_TileSpriteIndex: 64
      m_TileMatrixIndex: 0
      m_TileColorIndex: 0
      m_TileObjectToInstantiateIndex: 65535
      m_AllTileFlags: 1073741825
  - first: {x: -2, y: -2, z: 0}
    second:
      serializedVersion: 2
      m_TileIndex: 34
      m_TileSpriteIndex: 34
      m_TileMatrixIndex: 0
      m_TileColorIndex: 0
      m_TileObjectToInstantiateIndex: 65535
      m_AllTileFlags: 1073741825
  - first: {x: -1, y: -2, z: 0}
    second:
      serializedVersion: 2
      m_TileIndex: 35
      m_TileSpriteIndex: 35
      m_TileMatrixIndex: 0
      m_TileColorIndex: 0
      m_TileObjectToInstantiateIndex: 65535
      m_AllTileFlags: 1073741825
  - first: {x: 0, y: -2, z: 0}
    second:
      serializedVersion: 2
      m_TileIndex: 36
      m_TileSpriteIndex: 36
      m_TileMatrixIndex: 0
      m_TileColorIndex: 0
      m_TileObjectToInstantiateIndex: 65535
      m_AllTileFlags: 1073741825
  - first: {x: 4, y: -2, z: 0}
    second:
      serializedVersion: 2
      m_TileIndex: 37
      m_TileSpriteIndex: 37
      m_TileMatrixIndex: 0
      m_TileColorIndex: 0
      m_TileObjectToInstantiateIndex: 65535
      m_AllTileFlags: 1073741825
  - first: {x: 5, y: -2, z: 0}
    second:
      serializedVersion: 2
      m_TileIndex: 38
      m_TileSpriteIndex: 38
      m_TileMatrixIndex: 0
      m_TileColorIndex: 0
      m_TileObjectToInstantiateIndex: 65535
      m_AllTileFlags: 1073741825
  - first: {x: 6, y: -2, z: 0}
    second:
      serializedVersion: 2
      m_TileIndex: 39
      m_TileSpriteIndex: 39
      m_TileMatrixIndex: 0
      m_TileColorIndex: 0
      m_TileObjectToInstantiateIndex: 65535
      m_AllTileFlags: 1073741825
  - first: {x: 11, y: -2, z: 0}
    second:
      serializedVersion: 2
      m_TileIndex: 40
      m_TileSpriteIndex: 40
      m_TileMatrixIndex: 0
      m_TileColorIndex: 0
      m_TileObjectToInstantiateIndex: 65535
      m_AllTileFlags: 1073741825
  - first: {x: 12, y: -2, z: 0}
    second:
      serializedVersion: 2
      m_TileIndex: 41
      m_TileSpriteIndex: 41
      m_TileMatrixIndex: 0
      m_TileColorIndex: 0
      m_TileObjectToInstantiateIndex: 65535
      m_AllTileFlags: 1073741825
  - first: {x: 13, y: -2, z: 0}
    second:
      serializedVersion: 2
      m_TileIndex: 42
      m_TileSpriteIndex: 42
      m_TileMatrixIndex: 0
      m_TileColorIndex: 0
      m_TileObjectToInstantiateIndex: 65535
      m_AllTileFlags: 1073741825
  - first: {x: 15, y: -2, z: 0}
    second:
      serializedVersion: 2
      m_TileIndex: 43
      m_TileSpriteIndex: 43
      m_TileMatrixIndex: 0
      m_TileColorIndex: 0
      m_TileObjectToInstantiateIndex: 65535
      m_AllTileFlags: 1073741825
  - first: {x: 16, y: -2, z: 0}
    second:
      serializedVersion: 2
      m_TileIndex: 44
      m_TileSpriteIndex: 44
      m_TileMatrixIndex: 0
      m_TileColorIndex: 0
      m_TileObjectToInstantiateIndex: 65535
      m_AllTileFlags: 1073741825
  - first: {x: 17, y: -2, z: 0}
    second:
      serializedVersion: 2
      m_TileIndex: 45
      m_TileSpriteIndex: 45
      m_TileMatrixIndex: 0
      m_TileColorIndex: 0
      m_TileObjectToInstantiateIndex: 65535
      m_AllTileFlags: 1073741825
  - first: {x: -2, y: -1, z: 0}
    second:
      serializedVersion: 2
      m_TileIndex: 18
      m_TileSpriteIndex: 18
      m_TileMatrixIndex: 0
      m_TileColorIndex: 0
      m_TileObjectToInstantiateIndex: 65535
      m_AllTileFlags: 1073741825
  - first: {x: -1, y: -1, z: 0}
    second:
      serializedVersion: 2
      m_TileIndex: 19
      m_TileSpriteIndex: 19
      m_TileMatrixIndex: 0
      m_TileColorIndex: 0
      m_TileObjectToInstantiateIndex: 65535
      m_AllTileFlags: 1073741825
  - first: {x: 0, y: -1, z: 0}
    second:
      serializedVersion: 2
      m_TileIndex: 20
      m_TileSpriteIndex: 20
      m_TileMatrixIndex: 0
      m_TileColorIndex: 0
      m_TileObjectToInstantiateIndex: 65535
      m_AllTileFlags: 1073741825
  - first: {x: 1, y: -1, z: 0}
    second:
      serializedVersion: 2
      m_TileIndex: 21
      m_TileSpriteIndex: 21
      m_TileMatrixIndex: 0
      m_TileColorIndex: 0
      m_TileObjectToInstantiateIndex: 65535
      m_AllTileFlags: 1073741825
  - first: {x: 2, y: -1, z: 0}
    second:
      serializedVersion: 2
      m_TileIndex: 22
      m_TileSpriteIndex: 22
      m_TileMatrixIndex: 0
      m_TileColorIndex: 0
      m_TileObjectToInstantiateIndex: 65535
      m_AllTileFlags: 1073741825
  - first: {x: 4, y: -1, z: 0}
    second:
      serializedVersion: 2
      m_TileIndex: 4
      m_TileSpriteIndex: 4
      m_TileMatrixIndex: 0
      m_TileColorIndex: 0
      m_TileObjectToInstantiateIndex: 65535
      m_AllTileFlags: 1073741825
  - first: {x: 5, y: -1, z: 0}
    second:
      serializedVersion: 2
      m_TileIndex: 23
      m_TileSpriteIndex: 23
      m_TileMatrixIndex: 0
      m_TileColorIndex: 0
      m_TileObjectToInstantiateIndex: 65535
      m_AllTileFlags: 1073741825
  - first: {x: 6, y: -1, z: 0}
    second:
      serializedVersion: 2
      m_TileIndex: 24
      m_TileSpriteIndex: 24
      m_TileMatrixIndex: 0
      m_TileColorIndex: 0
      m_TileObjectToInstantiateIndex: 65535
      m_AllTileFlags: 1073741825
  - first: {x: 7, y: -1, z: 0}
    second:
      serializedVersion: 2
      m_TileIndex: 25
      m_TileSpriteIndex: 25
      m_TileMatrixIndex: 0
      m_TileColorIndex: 0
      m_TileObjectToInstantiateIndex: 65535
      m_AllTileFlags: 1073741825
  - first: {x: 8, y: -1, z: 0}
    second:
      serializedVersion: 2
      m_TileIndex: 26
      m_TileSpriteIndex: 26
      m_TileMatrixIndex: 0
      m_TileColorIndex: 0
      m_TileObjectToInstantiateIndex: 65535
      m_AllTileFlags: 1073741825
  - first: {x: 10, y: -1, z: 0}
    second:
      serializedVersion: 2
      m_TileIndex: 27
      m_TileSpriteIndex: 27
      m_TileMatrixIndex: 0
      m_TileColorIndex: 0
      m_TileObjectToInstantiateIndex: 65535
      m_AllTileFlags: 1073741825
  - first: {x: 11, y: -1, z: 0}
    second:
      serializedVersion: 2
      m_TileIndex: 28
      m_TileSpriteIndex: 28
      m_TileMatrixIndex: 0
      m_TileColorIndex: 0
      m_TileObjectToInstantiateIndex: 65535
      m_AllTileFlags: 1073741825
  - first: {x: 12, y: -1, z: 0}
    second:
      serializedVersion: 2
      m_TileIndex: 29
      m_TileSpriteIndex: 29
      m_TileMatrixIndex: 0
      m_TileColorIndex: 0
      m_TileObjectToInstantiateIndex: 65535
      m_AllTileFlags: 1073741825
  - first: {x: 13, y: -1, z: 0}
    second:
      serializedVersion: 2
      m_TileIndex: 30
      m_TileSpriteIndex: 30
      m_TileMatrixIndex: 0
      m_TileColorIndex: 0
      m_TileObjectToInstantiateIndex: 65535
      m_AllTileFlags: 1073741825
  - first: {x: 15, y: -1, z: 0}
    second:
      serializedVersion: 2
      m_TileIndex: 31
      m_TileSpriteIndex: 31
      m_TileMatrixIndex: 0
      m_TileColorIndex: 0
      m_TileObjectToInstantiateIndex: 65535
      m_AllTileFlags: 1073741825
  - first: {x: 16, y: -1, z: 0}
    second:
      serializedVersion: 2
      m_TileIndex: 32
      m_TileSpriteIndex: 32
      m_TileMatrixIndex: 0
      m_TileColorIndex: 0
      m_TileObjectToInstantiateIndex: 65535
      m_AllTileFlags: 1073741825
  - first: {x: 17, y: -1, z: 0}
    second:
      serializedVersion: 2
      m_TileIndex: 33
      m_TileSpriteIndex: 33
      m_TileMatrixIndex: 0
      m_TileColorIndex: 0
      m_TileObjectToInstantiateIndex: 65535
      m_AllTileFlags: 1073741825
  - first: {x: -2, y: 0, z: 0}
    second:
      serializedVersion: 2
      m_TileIndex: 5
      m_TileSpriteIndex: 5
      m_TileMatrixIndex: 0
      m_TileColorIndex: 0
      m_TileObjectToInstantiateIndex: 65535
      m_AllTileFlags: 1073741825
  - first: {x: -1, y: 0, z: 0}
    second:
      serializedVersion: 2
      m_TileIndex: 6
      m_TileSpriteIndex: 6
      m_TileMatrixIndex: 0
      m_TileColorIndex: 0
      m_TileObjectToInstantiateIndex: 65535
      m_AllTileFlags: 1073741825
  - first: {x: 0, y: 0, z: 0}
    second:
      serializedVersion: 2
      m_TileIndex: 7
      m_TileSpriteIndex: 7
      m_TileMatrixIndex: 0
      m_TileColorIndex: 0
      m_TileObjectToInstantiateIndex: 65535
      m_AllTileFlags: 1073741825
  - first: {x: 1, y: 0, z: 0}
    second:
      serializedVersion: 2
      m_TileIndex: 8
      m_TileSpriteIndex: 8
      m_TileMatrixIndex: 0
      m_TileColorIndex: 0
      m_TileObjectToInstantiateIndex: 65535
      m_AllTileFlags: 1073741825
  - first: {x: 2, y: 0, z: 0}
    second:
      serializedVersion: 2
      m_TileIndex: 9
      m_TileSpriteIndex: 9
      m_TileMatrixIndex: 0
      m_TileColorIndex: 0
      m_TileObjectToInstantiateIndex: 65535
      m_AllTileFlags: 1073741825
  - first: {x: 4, y: 0, z: 0}
    second:
      serializedVersion: 2
      m_TileIndex: 0
      m_TileSpriteIndex: 0
      m_TileMatrixIndex: 0
      m_TileColorIndex: 0
      m_TileObjectToInstantiateIndex: 65535
      m_AllTileFlags: 1073741825
  - first: {x: 5, y: 0, z: 0}
    second:
      serializedVersion: 2
      m_TileIndex: 1
      m_TileSpriteIndex: 1
      m_TileMatrixIndex: 0
      m_TileColorIndex: 0
      m_TileObjectToInstantiateIndex: 65535
      m_AllTileFlags: 1073741825
  - first: {x: 6, y: 0, z: 0}
    second:
      serializedVersion: 2
      m_TileIndex: 2
      m_TileSpriteIndex: 2
      m_TileMatrixIndex: 0
      m_TileColorIndex: 0
      m_TileObjectToInstantiateIndex: 65535
      m_AllTileFlags: 1073741825
  - first: {x: 7, y: 0, z: 0}
    second:
      serializedVersion: 2
      m_TileIndex: 3
      m_TileSpriteIndex: 3
      m_TileMatrixIndex: 0
      m_TileColorIndex: 0
      m_TileObjectToInstantiateIndex: 65535
      m_AllTileFlags: 1073741825
  - first: {x: 8, y: 0, z: 0}
    second:
      serializedVersion: 2
      m_TileIndex: 10
      m_TileSpriteIndex: 10
      m_TileMatrixIndex: 0
      m_TileColorIndex: 0
      m_TileObjectToInstantiateIndex: 65535
      m_AllTileFlags: 1073741825
  - first: {x: 10, y: 0, z: 0}
    second:
      serializedVersion: 2
      m_TileIndex: 11
      m_TileSpriteIndex: 11
      m_TileMatrixIndex: 0
      m_TileColorIndex: 0
      m_TileObjectToInstantiateIndex: 65535
      m_AllTileFlags: 1073741825
  - first: {x: 11, y: 0, z: 0}
    second:
      serializedVersion: 2
      m_TileIndex: 12
      m_TileSpriteIndex: 12
      m_TileMatrixIndex: 0
      m_TileColorIndex: 0
      m_TileObjectToInstantiateIndex: 65535
      m_AllTileFlags: 1073741825
  - first: {x: 12, y: 0, z: 0}
    second:
      serializedVersion: 2
      m_TileIndex: 13
      m_TileSpriteIndex: 13
      m_TileMatrixIndex: 0
      m_TileColorIndex: 0
      m_TileObjectToInstantiateIndex: 65535
      m_AllTileFlags: 1073741825
  - first: {x: 13, y: 0, z: 0}
    second:
      serializedVersion: 2
      m_TileIndex: 14
      m_TileSpriteIndex: 14
      m_TileMatrixIndex: 0
      m_TileColorIndex: 0
      m_TileObjectToInstantiateIndex: 65535
      m_AllTileFlags: 1073741825
  - first: {x: 15, y: 0, z: 0}
    second:
      serializedVersion: 2
      m_TileIndex: 15
      m_TileSpriteIndex: 15
      m_TileMatrixIndex: 0
      m_TileColorIndex: 0
      m_TileObjectToInstantiateIndex: 65535
      m_AllTileFlags: 1073741825
  - first: {x: 16, y: 0, z: 0}
    second:
      serializedVersion: 2
      m_TileIndex: 16
      m_TileSpriteIndex: 16
      m_TileMatrixIndex: 0
      m_TileColorIndex: 0
      m_TileObjectToInstantiateIndex: 65535
      m_AllTileFlags: 1073741825
  - first: {x: 17, y: 0, z: 0}
    second:
      serializedVersion: 2
      m_TileIndex: 17
      m_TileSpriteIndex: 17
      m_TileMatrixIndex: 0
      m_TileColorIndex: 0
      m_TileObjectToInstantiateIndex: 65535
      m_AllTileFlags: 1073741825
  - first: {x: 4, y: 3, z: 0}
    second:
      serializedVersion: 2
      m_TileIndex: 146
      m_TileSpriteIndex: 145
      m_TileMatrixIndex: 0
      m_TileColorIndex: 0
      m_TileObjectToInstantiateIndex: 65535
      m_AllTileFlags: 1073741825
  - first: {x: 6, y: 3, z: 0}
    second:
      serializedVersion: 2
      m_TileIndex: 147
      m_TileSpriteIndex: 146
      m_TileMatrixIndex: 0
      m_TileColorIndex: 0
      m_TileObjectToInstantiateIndex: 65535
      m_AllTileFlags: 1073741825
  m_AnimatedTiles: {}
  m_TileAssetArray:
  - m_RefCount: 1
    m_Data: {fileID: 11400000, guid: 14738c8a7b3dede45999f17ceb78639d, type: 2}
  - m_RefCount: 1
    m_Data: {fileID: 11400000, guid: f3389cc22b0c23d4a9e6f15f29ff2e80, type: 2}
  - m_RefCount: 1
    m_Data: {fileID: 11400000, guid: 42cee137b6b70fa4f945f4c6979a2991, type: 2}
  - m_RefCount: 1
    m_Data: {fileID: 11400000, guid: 632f5356ac11af243ac87dfd3895cc77, type: 2}
  - m_RefCount: 1
    m_Data: {fileID: 11400000, guid: b89d8e6d9f179fc4294632ff76b3057a, type: 2}
  - m_RefCount: 1
    m_Data: {fileID: 11400000, guid: 4462449558cc107418716827628db8e4, type: 2}
  - m_RefCount: 1
    m_Data: {fileID: 11400000, guid: bca3a078741db04478e087e28d01fc7e, type: 2}
  - m_RefCount: 1
    m_Data: {fileID: 11400000, guid: 4051fc76bc908804b8340d440bf13c80, type: 2}
  - m_RefCount: 1
    m_Data: {fileID: 11400000, guid: d3959b829cb9ef34ba6c13b63d611527, type: 2}
  - m_RefCount: 1
    m_Data: {fileID: 11400000, guid: 8d5f474439fa63149ab53e56aa5bfa41, type: 2}
  - m_RefCount: 1
    m_Data: {fileID: 11400000, guid: d98284eefaa39a54eafe5e19ac32b149, type: 2}
  - m_RefCount: 1
    m_Data: {fileID: 11400000, guid: 674dfbdb2d38251478687588421ca848, type: 2}
  - m_RefCount: 1
    m_Data: {fileID: 11400000, guid: bd9bc0a4377244743b07ec5b439f23ac, type: 2}
  - m_RefCount: 1
    m_Data: {fileID: 11400000, guid: 98cbaa3068ca19d4d8bd68959d9892fc, type: 2}
  - m_RefCount: 1
    m_Data: {fileID: 11400000, guid: d7a53b91a45c94446af9b4ebf793fe6d, type: 2}
  - m_RefCount: 1
    m_Data: {fileID: 11400000, guid: 92ee95342ae6cd14283d635aff791be7, type: 2}
  - m_RefCount: 1
    m_Data: {fileID: 11400000, guid: fcc739bf5e3382b428029c5296073629, type: 2}
  - m_RefCount: 1
    m_Data: {fileID: 11400000, guid: ef358dcda8656c8478fd5bb850fb67d5, type: 2}
  - m_RefCount: 1
    m_Data: {fileID: 11400000, guid: 9f1d0e76feaca7d4eacddca624f72091, type: 2}
  - m_RefCount: 1
    m_Data: {fileID: 11400000, guid: 3f33d56e126a8a442afa9736fe682fb7, type: 2}
  - m_RefCount: 1
    m_Data: {fileID: 11400000, guid: dc3a74ea08b498747b59c58175b91669, type: 2}
  - m_RefCount: 1
    m_Data: {fileID: 11400000, guid: 527a2f81e02c6654e8567c50572ff017, type: 2}
  - m_RefCount: 1
    m_Data: {fileID: 11400000, guid: e2fff3fed1017a44a839c2f2bc7de802, type: 2}
  - m_RefCount: 1
    m_Data: {fileID: 11400000, guid: 28449fc0b98380248a10e171bae75936, type: 2}
  - m_RefCount: 1
    m_Data: {fileID: 11400000, guid: 53bc2ec845b3b824fb38cacddd8616f7, type: 2}
  - m_RefCount: 1
    m_Data: {fileID: 11400000, guid: c247f9b6e11e8bb4dbba22c92485dd88, type: 2}
  - m_RefCount: 1
    m_Data: {fileID: 11400000, guid: e9c480c8bfa72c54cb01503864ed637d, type: 2}
  - m_RefCount: 1
    m_Data: {fileID: 11400000, guid: edb38bc8745fa624d9fd98db886dd38e, type: 2}
  - m_RefCount: 1
    m_Data: {fileID: 11400000, guid: 35c9353c20d9da44a80ecc02f9b8f7eb, type: 2}
  - m_RefCount: 1
    m_Data: {fileID: 11400000, guid: a9a4fb91c8185594d9f3d8167e1176b2, type: 2}
  - m_RefCount: 1
    m_Data: {fileID: 11400000, guid: 1985f194ca993c542839066e0c5836dd, type: 2}
  - m_RefCount: 1
    m_Data: {fileID: 11400000, guid: 669a256b763bef546af1d9fc8f7fb9d2, type: 2}
  - m_RefCount: 1
    m_Data: {fileID: 11400000, guid: bc20a849cf4073340b9ac15deec38e22, type: 2}
  - m_RefCount: 1
    m_Data: {fileID: 11400000, guid: 638cbcfa80635e94b8daf10ec37bea99, type: 2}
  - m_RefCount: 1
    m_Data: {fileID: 11400000, guid: aad9af1eb70af3c4e9ffa6e65da4408d, type: 2}
  - m_RefCount: 1
    m_Data: {fileID: 11400000, guid: 6f3a0756141550a499ba68cc87a99a60, type: 2}
  - m_RefCount: 1
    m_Data: {fileID: 11400000, guid: bfe27cb5d3d7ca24493e99a73a8c0995, type: 2}
  - m_RefCount: 1
    m_Data: {fileID: 11400000, guid: 6f24111c8b6cf5743abeff5aa2b38954, type: 2}
  - m_RefCount: 1
    m_Data: {fileID: 11400000, guid: 731d566abb102b54d91ed13ec7c38509, type: 2}
  - m_RefCount: 1
    m_Data: {fileID: 11400000, guid: 86ec3c2c2ce5ca847b08a8216aeaec4d, type: 2}
  - m_RefCount: 1
    m_Data: {fileID: 11400000, guid: c41bf4eb813d58641b9be1690bb3b76c, type: 2}
  - m_RefCount: 1
    m_Data: {fileID: 11400000, guid: b704b085b414b5e45a995b249f6abfb6, type: 2}
  - m_RefCount: 1
    m_Data: {fileID: 11400000, guid: 78480dabcbce0bf4e89aa85f676bb104, type: 2}
  - m_RefCount: 1
    m_Data: {fileID: 11400000, guid: defe42df1ae4bba4b930ef9adb44645a, type: 2}
  - m_RefCount: 1
    m_Data: {fileID: 11400000, guid: a40d3f3d4a6e837409f25e5da8f4e6ab, type: 2}
  - m_RefCount: 1
    m_Data: {fileID: 11400000, guid: 50f9152077538c440aa08f4eaec72227, type: 2}
  - m_RefCount: 1
    m_Data: {fileID: 11400000, guid: b426069aadd43aa4186bb146fb5a57fe, type: 2}
  - m_RefCount: 1
    m_Data: {fileID: 11400000, guid: 14327cb351c8ea44a8e5e688e65869c7, type: 2}
  - m_RefCount: 1
    m_Data: {fileID: 11400000, guid: f507ef9496b2aed4a88d8482f704a710, type: 2}
  - m_RefCount: 1
    m_Data: {fileID: 11400000, guid: 73ba19ddb663f7344b0cb9c27820482c, type: 2}
  - m_RefCount: 1
    m_Data: {fileID: 11400000, guid: c4cb6dfadfecd9c49a617e09e5ae34cd, type: 2}
  - m_RefCount: 1
    m_Data: {fileID: 11400000, guid: 792430d4f03f2694299cae50e1529963, type: 2}
  - m_RefCount: 1
    m_Data: {fileID: 11400000, guid: a767b6e14ca356e478eab1376ca8a888, type: 2}
  - m_RefCount: 1
    m_Data: {fileID: 11400000, guid: a36215c94df69e143a90e223220f5216, type: 2}
  - m_RefCount: 1
    m_Data: {fileID: 11400000, guid: 3192b79be5711c847a2f0d830a38997a, type: 2}
  - m_RefCount: 1
    m_Data: {fileID: 11400000, guid: 9c1fb322c554eff4bbea5401faee366d, type: 2}
  - m_RefCount: 1
    m_Data: {fileID: 11400000, guid: e94293b86b7e70242bd713546f5c66c6, type: 2}
  - m_RefCount: 1
    m_Data: {fileID: 11400000, guid: d57cb448da51f5d41be518e834b0b0ef, type: 2}
  - m_RefCount: 1
    m_Data: {fileID: 11400000, guid: e0a62bbe76fbef740b6daf5b80b19d87, type: 2}
  - m_RefCount: 1
    m_Data: {fileID: 11400000, guid: 9976d757a239b9449b10e1897151c16a, type: 2}
  - m_RefCount: 1
    m_Data: {fileID: 11400000, guid: 37914aca793d14f428d20608ec8b5db1, type: 2}
  - m_RefCount: 1
    m_Data: {fileID: 11400000, guid: 2d028ac2bfa79954aa04bdbd031629f8, type: 2}
  - m_RefCount: 1
    m_Data: {fileID: 11400000, guid: 723c3fc4a4acc974e92938df772647fa, type: 2}
  - m_RefCount: 1
    m_Data: {fileID: 11400000, guid: 5c6caaf54910c8747a01079f847a6f2b, type: 2}
  - m_RefCount: 1
    m_Data: {fileID: 11400000, guid: b815f305dfd30854abfdac676de90712, type: 2}
  - m_RefCount: 1
    m_Data: {fileID: 11400000, guid: 6bd6150f17e6bf84390bacaacab031c9, type: 2}
  - m_RefCount: 1
    m_Data: {fileID: 11400000, guid: d80db4aae09b5e04f8f3cf1771bb71c4, type: 2}
  - m_RefCount: 1
    m_Data: {fileID: 11400000, guid: 1406472041f624444856b87a79058cbe, type: 2}
  - m_RefCount: 1
    m_Data: {fileID: 11400000, guid: 93632874ddaaaeb4a8d2a54ff84d73d4, type: 2}
  - m_RefCount: 1
    m_Data: {fileID: 11400000, guid: f5711029515ef0d4faa3340d12fce2f6, type: 2}
  - m_RefCount: 1
    m_Data: {fileID: 11400000, guid: d1ddfc0962cfd334dbec9e533704d51a, type: 2}
  - m_RefCount: 1
    m_Data: {fileID: 11400000, guid: 0f10564ac3c2f4c4caabc48a4e092911, type: 2}
  - m_RefCount: 1
    m_Data: {fileID: 11400000, guid: 81a755c80e312f74cb941ad271074001, type: 2}
  - m_RefCount: 1
    m_Data: {fileID: 11400000, guid: b0b2c2be5ba0a7e4aa8d38651ce753e4, type: 2}
  - m_RefCount: 1
    m_Data: {fileID: 11400000, guid: e88223862ed420940b2ddc518cf64b1f, type: 2}
  - m_RefCount: 1
    m_Data: {fileID: 11400000, guid: 40a32fb539d38df448c250fabaef3462, type: 2}
  - m_RefCount: 1
    m_Data: {fileID: 11400000, guid: 9cb2dbcd85974844385908656fb84a9c, type: 2}
  - m_RefCount: 1
    m_Data: {fileID: 11400000, guid: 2c472bf0364d9e44a8c85d22151133b7, type: 2}
  - m_RefCount: 1
    m_Data: {fileID: 11400000, guid: d02644be78f7f5442a5363f83586ab16, type: 2}
  - m_RefCount: 1
    m_Data: {fileID: 11400000, guid: 7429abdb611a5c041b7d4be30880a93c, type: 2}
  - m_RefCount: 1
    m_Data: {fileID: 11400000, guid: 55a26cb5c30a7444091850310e417033, type: 2}
  - m_RefCount: 1
    m_Data: {fileID: 11400000, guid: 8d65a0cf1025d3b418fedb87511d3914, type: 2}
  - m_RefCount: 1
    m_Data: {fileID: 11400000, guid: 331b9717d60132746b5ba526f8b23d1b, type: 2}
  - m_RefCount: 1
    m_Data: {fileID: 11400000, guid: bed621182be579a4d9301b9ee088c50a, type: 2}
  - m_RefCount: 1
    m_Data: {fileID: 11400000, guid: ff9dba01a4529a248beb34df5de6c4b7, type: 2}
  - m_RefCount: 1
    m_Data: {fileID: 11400000, guid: 774561ea78e672146af3ac2eeb1dfde8, type: 2}
  - m_RefCount: 1
    m_Data: {fileID: 11400000, guid: 64902b40eb2028f4a97f975f2ab5fdfe, type: 2}
  - m_RefCount: 1
    m_Data: {fileID: 11400000, guid: 3709385eb625fc94bb791d0b0bf45985, type: 2}
  - m_RefCount: 1
    m_Data: {fileID: 11400000, guid: 4bb88abc42ae11d4e8d4bd5001664d07, type: 2}
  - m_RefCount: 1
    m_Data: {fileID: 11400000, guid: 91a8c7c22fbb69a44896153d8625c517, type: 2}
  - m_RefCount: 1
    m_Data: {fileID: 11400000, guid: 9595efc721955ef488b0073c9a9ddfc5, type: 2}
  - m_RefCount: 1
    m_Data: {fileID: 11400000, guid: 18634e759adbb0c4da0a6a68537a8cd0, type: 2}
  - m_RefCount: 1
    m_Data: {fileID: 11400000, guid: 063a6b2543955f343b4d555102a786d2, type: 2}
  - m_RefCount: 1
    m_Data: {fileID: 11400000, guid: 1a494311f853636419166c1b63937896, type: 2}
  - m_RefCount: 1
    m_Data: {fileID: 11400000, guid: 3113d6e5d88a91843873907f451e3c9a, type: 2}
  - m_RefCount: 1
    m_Data: {fileID: 11400000, guid: 554ce3e71a2b1a74b9155854d36a0da3, type: 2}
  - m_RefCount: 1
    m_Data: {fileID: 11400000, guid: 356e205fe2ba8c644815877abb3d188b, type: 2}
  - m_RefCount: 1
    m_Data: {fileID: 11400000, guid: a26d449743dbafb47bc44c7798e03ae3, type: 2}
  - m_RefCount: 1
    m_Data: {fileID: 11400000, guid: 36c4e5c03591b794cb15666bf1b6370b, type: 2}
  - m_RefCount: 1
    m_Data: {fileID: 11400000, guid: 15197d085ec408c49970a198dc4d3da4, type: 2}
  - m_RefCount: 1
    m_Data: {fileID: 11400000, guid: 3d43811f6ba54b543a1222f5f53d2959, type: 2}
  - m_RefCount: 1
    m_Data: {fileID: 11400000, guid: 5ee40cc4176c1db4ebcd4b3cf558895b, type: 2}
  - m_RefCount: 1
    m_Data: {fileID: 11400000, guid: 078fbf41d5adaba4db47f50de4ca7119, type: 2}
  - m_RefCount: 1
    m_Data: {fileID: 11400000, guid: 63a8d4b9b56106d4c89c2060137f1599, type: 2}
  - m_RefCount: 1
    m_Data: {fileID: 11400000, guid: 25c7b13cce4ec344eab4fa9084c313ea, type: 2}
  - m_RefCount: 1
    m_Data: {fileID: 11400000, guid: 81046c6604e27674e963806a465af3cb, type: 2}
  - m_RefCount: 1
    m_Data: {fileID: 11400000, guid: 3edc151fcf001a2458aa9ea7b3dfc475, type: 2}
  - m_RefCount: 1
    m_Data: {fileID: 11400000, guid: 397ad96ffa9137445bc11711a1d406c0, type: 2}
  - m_RefCount: 1
    m_Data: {fileID: 11400000, guid: 34c099a4038ce8446bbedd447c8d11e4, type: 2}
  - m_RefCount: 1
    m_Data: {fileID: 11400000, guid: 5f42703824af6924cb3149d943acc0b8, type: 2}
  - m_RefCount: 1
    m_Data: {fileID: 11400000, guid: ca648aa0be9ab1a4faeb51c58559d17e, type: 2}
  - m_RefCount: 1
    m_Data: {fileID: 11400000, guid: 2e9f2f827f3d5ad4b98d8b5bc9aeb3b0, type: 2}
  - m_RefCount: 1
    m_Data: {fileID: 11400000, guid: b8ab6b935545b2544adfa15c9b6ad95d, type: 2}
  - m_RefCount: 1
    m_Data: {fileID: 11400000, guid: 7f507220b918f5f4d9084f96313ff6d6, type: 2}
  - m_RefCount: 1
    m_Data: {fileID: 11400000, guid: 9ab3ea3fd9e9eaf4c9d54471c93251fd, type: 2}
  - m_RefCount: 1
    m_Data: {fileID: 11400000, guid: a188109dd2d3f9b4c93f1d45b76fc33c, type: 2}
  - m_RefCount: 1
    m_Data: {fileID: 11400000, guid: 54474386796c239429dd7e3f7e9bf0f3, type: 2}
  - m_RefCount: 1
    m_Data: {fileID: 11400000, guid: 914435c9ffe0d3747a24ee70c3f212be, type: 2}
  - m_RefCount: 1
    m_Data: {fileID: 11400000, guid: 6f1b8834a7c7715468cd9c44809c1500, type: 2}
  - m_RefCount: 1
    m_Data: {fileID: 11400000, guid: b78c716df9cc68e43b47fcb577abf233, type: 2}
  - m_RefCount: 1
    m_Data: {fileID: 11400000, guid: 716888d5ab8518d4fad9449976bd8a69, type: 2}
  - m_RefCount: 1
    m_Data: {fileID: 11400000, guid: e1d6481e5fec8e84e87a109e2ce025e4, type: 2}
  - m_RefCount: 1
    m_Data: {fileID: 11400000, guid: 4459b77678be8b343898653512afd0a2, type: 2}
  - m_RefCount: 1
    m_Data: {fileID: 11400000, guid: d98b6243b6d4dfb44b12ad32ffaf65ff, type: 2}
  - m_RefCount: 1
    m_Data: {fileID: 11400000, guid: 6e274f22ba4d84f488f2f7aba9b0771d, type: 2}
  - m_RefCount: 1
    m_Data: {fileID: 11400000, guid: c94b330ca5c2544448dacaf27aa557b5, type: 2}
  - m_RefCount: 1
    m_Data: {fileID: 11400000, guid: f727fd0dcb8acb04d879f7a16cd42742, type: 2}
  - m_RefCount: 1
    m_Data: {fileID: 11400000, guid: b66075a56e20e35408b14f4b0708c588, type: 2}
  - m_RefCount: 1
    m_Data: {fileID: 11400000, guid: 0309d824683249d43a59cc390d1a9fe0, type: 2}
  - m_RefCount: 1
    m_Data: {fileID: 11400000, guid: 262807996eb61904ab06a02b5ea8b3e8, type: 2}
  - m_RefCount: 1
    m_Data: {fileID: 11400000, guid: 0b66c7f036b128c4d81e95135688f8d7, type: 2}
  - m_RefCount: 1
    m_Data: {fileID: 11400000, guid: f98d385966294494db61b296ef5a3f46, type: 2}
  - m_RefCount: 1
    m_Data: {fileID: 11400000, guid: 98c8500bb725a3e47b14df824b7ea744, type: 2}
  - m_RefCount: 1
    m_Data: {fileID: 11400000, guid: 9d5a8c978146ab146becd56ede46cf37, type: 2}
  - m_RefCount: 1
    m_Data: {fileID: 11400000, guid: cc683b92edee823439051b2ba0782435, type: 2}
  - m_RefCount: 1
    m_Data: {fileID: 11400000, guid: 02db33d4b6395a943b3a1995018fbf5b, type: 2}
  - m_RefCount: 1
    m_Data: {fileID: 11400000, guid: 2bc116b54714d6e4aa33ca55ea6f5847, type: 2}
  - m_RefCount: 1
    m_Data: {fileID: 11400000, guid: c151a7035f2480d4a939f9e388dab27b, type: 2}
  - m_RefCount: 1
    m_Data: {fileID: 11400000, guid: f2defc40b9137f340896f18b28e9b404, type: 2}
  - m_RefCount: 1
    m_Data: {fileID: 11400000, guid: c8e08c3d733e36c41b982d238c85f2e1, type: 2}
  - m_RefCount: 1
    m_Data: {fileID: 11400000, guid: 5205eeae0e8164a4397e0c9db5018a3a, type: 2}
  - m_RefCount: 1
    m_Data: {fileID: 11400000, guid: 7a5dba61e6d341044943fdf9e8ed208b, type: 2}
  - m_RefCount: 1
    m_Data: {fileID: 11400000, guid: 0b62815bae48592449c8ca2c255c5fa6, type: 2}
  - m_RefCount: 1
    m_Data: {fileID: 11400000, guid: df8e8d0b27abcf94e861253800789853, type: 2}
  - m_RefCount: 1
    m_Data: {fileID: 0}
  - m_RefCount: 1
    m_Data: {fileID: 0}
  - m_RefCount: 1
    m_Data: {fileID: 11400000, guid: aa62d79023da33142bbd698a1bbd00d3, type: 2}
  - m_RefCount: 1
    m_Data: {fileID: 11400000, guid: 534c048404b71b147baa49a6dc8a3eb6, type: 2}
  - m_RefCount: 1
    m_Data: {fileID: 11400000, guid: 4998239a8e635fe48b24712445140527, type: 2}
  - m_RefCount: 1
    m_Data: {fileID: 11400000, guid: 63b06821d2f6d0a43bbc43b6d1322b49, type: 2}
  - m_RefCount: 1
    m_Data: {fileID: 11400000, guid: 1e22c1f30fb69234e89138909bd83c27, type: 2}
  - m_RefCount: 1
    m_Data: {fileID: 11400000, guid: 77b497802f004c342b170ec2996880ae, type: 2}
  - m_RefCount: 1
    m_Data: {fileID: 11400000, guid: 2aa23de427611a84f8960ed821798354, type: 2}
  - m_RefCount: 1
    m_Data: {fileID: 11400000, guid: 76f5f6e7374b2b347a6c41e0333f458a, type: 2}
  m_TileSpriteArray:
  - m_RefCount: 1
    m_Data: {fileID: -8620202154233844528, guid: fc584d329b77b9545b9c9c8bb829e553,
      type: 3}
  - m_RefCount: 1
    m_Data: {fileID: -7517053698926566003, guid: fc584d329b77b9545b9c9c8bb829e553,
      type: 3}
  - m_RefCount: 1
    m_Data: {fileID: 3020870990670601969, guid: fc584d329b77b9545b9c9c8bb829e553,
      type: 3}
  - m_RefCount: 1
    m_Data: {fileID: 1685935324672158413, guid: fc584d329b77b9545b9c9c8bb829e553,
      type: 3}
  - m_RefCount: 1
    m_Data: {fileID: 5714336816974921154, guid: fc584d329b77b9545b9c9c8bb829e553,
      type: 3}
  - m_RefCount: 1
    m_Data: {fileID: -4874278423985981231, guid: fc584d329b77b9545b9c9c8bb829e553,
      type: 3}
  - m_RefCount: 1
    m_Data: {fileID: 2492004042214043949, guid: fc584d329b77b9545b9c9c8bb829e553,
      type: 3}
  - m_RefCount: 1
    m_Data: {fileID: 8471289998749917440, guid: fc584d329b77b9545b9c9c8bb829e553,
      type: 3}
  - m_RefCount: 1
    m_Data: {fileID: 397718093594370940, guid: fc584d329b77b9545b9c9c8bb829e553, type: 3}
  - m_RefCount: 1
    m_Data: {fileID: 4716054802376701170, guid: fc584d329b77b9545b9c9c8bb829e553,
      type: 3}
  - m_RefCount: 1
    m_Data: {fileID: 8022139226935704013, guid: fc584d329b77b9545b9c9c8bb829e553,
      type: 3}
  - m_RefCount: 1
    m_Data: {fileID: 5587568460378422633, guid: fc584d329b77b9545b9c9c8bb829e553,
      type: 3}
  - m_RefCount: 1
    m_Data: {fileID: 4987498479824627636, guid: fc584d329b77b9545b9c9c8bb829e553,
      type: 3}
  - m_RefCount: 1
    m_Data: {fileID: 6480251376165907240, guid: fc584d329b77b9545b9c9c8bb829e553,
      type: 3}
  - m_RefCount: 1
    m_Data: {fileID: -8795747966950415410, guid: fc584d329b77b9545b9c9c8bb829e553,
      type: 3}
  - m_RefCount: 1
    m_Data: {fileID: -6278356596846833739, guid: fc584d329b77b9545b9c9c8bb829e553,
      type: 3}
  - m_RefCount: 1
    m_Data: {fileID: -7850267199778421155, guid: fc584d329b77b9545b9c9c8bb829e553,
      type: 3}
  - m_RefCount: 1
    m_Data: {fileID: 8102182086558406705, guid: fc584d329b77b9545b9c9c8bb829e553,
      type: 3}
  - m_RefCount: 1
    m_Data: {fileID: 6918280329820428914, guid: fc584d329b77b9545b9c9c8bb829e553,
      type: 3}
  - m_RefCount: 1
    m_Data: {fileID: -3946849515626757761, guid: fc584d329b77b9545b9c9c8bb829e553,
      type: 3}
  - m_RefCount: 1
    m_Data: {fileID: -2698208165065819517, guid: fc584d329b77b9545b9c9c8bb829e553,
      type: 3}
  - m_RefCount: 1
    m_Data: {fileID: -5448943668070679941, guid: fc584d329b77b9545b9c9c8bb829e553,
      type: 3}
  - m_RefCount: 1
    m_Data: {fileID: -2572975058836569894, guid: fc584d329b77b9545b9c9c8bb829e553,
      type: 3}
  - m_RefCount: 1
    m_Data: {fileID: 8704577166008928185, guid: fc584d329b77b9545b9c9c8bb829e553,
      type: 3}
  - m_RefCount: 1
    m_Data: {fileID: 313651839404696180, guid: fc584d329b77b9545b9c9c8bb829e553, type: 3}
  - m_RefCount: 1
    m_Data: {fileID: -1968872540364177098, guid: fc584d329b77b9545b9c9c8bb829e553,
      type: 3}
  - m_RefCount: 1
    m_Data: {fileID: -6401146908380638247, guid: fc584d329b77b9545b9c9c8bb829e553,
      type: 3}
  - m_RefCount: 1
    m_Data: {fileID: -3271834841568197018, guid: fc584d329b77b9545b9c9c8bb829e553,
      type: 3}
  - m_RefCount: 1
    m_Data: {fileID: -3097802831490656063, guid: fc584d329b77b9545b9c9c8bb829e553,
      type: 3}
  - m_RefCount: 1
    m_Data: {fileID: -8182233202742861025, guid: fc584d329b77b9545b9c9c8bb829e553,
      type: 3}
  - m_RefCount: 1
    m_Data: {fileID: -1730604581034617779, guid: fc584d329b77b9545b9c9c8bb829e553,
      type: 3}
  - m_RefCount: 1
    m_Data: {fileID: -1491035274662818768, guid: fc584d329b77b9545b9c9c8bb829e553,
      type: 3}
  - m_RefCount: 1
    m_Data: {fileID: -223391217462372170, guid: fc584d329b77b9545b9c9c8bb829e553,
      type: 3}
  - m_RefCount: 1
    m_Data: {fileID: 611065533247025525, guid: fc584d329b77b9545b9c9c8bb829e553, type: 3}
  - m_RefCount: 1
    m_Data: {fileID: 4356392584696007802, guid: fc584d329b77b9545b9c9c8bb829e553,
      type: 3}
  - m_RefCount: 1
    m_Data: {fileID: -8565927180804605051, guid: fc584d329b77b9545b9c9c8bb829e553,
      type: 3}
  - m_RefCount: 1
    m_Data: {fileID: -7788903373117692988, guid: fc584d329b77b9545b9c9c8bb829e553,
      type: 3}
  - m_RefCount: 1
    m_Data: {fileID: 1918823624152674874, guid: fc584d329b77b9545b9c9c8bb829e553,
      type: 3}
  - m_RefCount: 1
    m_Data: {fileID: 965125185638226396, guid: fc584d329b77b9545b9c9c8bb829e553, type: 3}
  - m_RefCount: 1
    m_Data: {fileID: 3631698497521491291, guid: fc584d329b77b9545b9c9c8bb829e553,
      type: 3}
  - m_RefCount: 1
    m_Data: {fileID: -1385159882611531606, guid: fc584d329b77b9545b9c9c8bb829e553,
      type: 3}
  - m_RefCount: 1
    m_Data: {fileID: 6882983052497979040, guid: fc584d329b77b9545b9c9c8bb829e553,
      type: 3}
  - m_RefCount: 1
    m_Data: {fileID: 5620700161029325194, guid: fc584d329b77b9545b9c9c8bb829e553,
      type: 3}
  - m_RefCount: 1
    m_Data: {fileID: 4373040517201769238, guid: fc584d329b77b9545b9c9c8bb829e553,
      type: 3}
  - m_RefCount: 1
    m_Data: {fileID: -6530495296205248430, guid: fc584d329b77b9545b9c9c8bb829e553,
      type: 3}
  - m_RefCount: 1
    m_Data: {fileID: 2248595124770686365, guid: fc584d329b77b9545b9c9c8bb829e553,
      type: 3}
  - m_RefCount: 1
    m_Data: {fileID: 59160463414151494, guid: fc584d329b77b9545b9c9c8bb829e553, type: 3}
  - m_RefCount: 1
    m_Data: {fileID: 7769017978755655707, guid: fc584d329b77b9545b9c9c8bb829e553,
      type: 3}
  - m_RefCount: 1
    m_Data: {fileID: 4651539075410445323, guid: fc584d329b77b9545b9c9c8bb829e553,
      type: 3}
  - m_RefCount: 1
    m_Data: {fileID: 2934133866269456315, guid: fc584d329b77b9545b9c9c8bb829e553,
      type: 3}
  - m_RefCount: 1
    m_Data: {fileID: 1034891850837087948, guid: fc584d329b77b9545b9c9c8bb829e553,
      type: 3}
  - m_RefCount: 1
    m_Data: {fileID: -4533138595082870998, guid: fc584d329b77b9545b9c9c8bb829e553,
      type: 3}
  - m_RefCount: 1
    m_Data: {fileID: 3702685922149842701, guid: fc584d329b77b9545b9c9c8bb829e553,
      type: 3}
  - m_RefCount: 1
    m_Data: {fileID: 510484679990689147, guid: fc584d329b77b9545b9c9c8bb829e553, type: 3}
  - m_RefCount: 1
    m_Data: {fileID: 3718556811081376101, guid: fc584d329b77b9545b9c9c8bb829e553,
      type: 3}
  - m_RefCount: 1
    m_Data: {fileID: -5869233480101591377, guid: fc584d329b77b9545b9c9c8bb829e553,
      type: 3}
  - m_RefCount: 1
    m_Data: {fileID: -2615569002567638836, guid: fc584d329b77b9545b9c9c8bb829e553,
      type: 3}
  - m_RefCount: 1
    m_Data: {fileID: 772467259971446145, guid: fc584d329b77b9545b9c9c8bb829e553, type: 3}
  - m_RefCount: 1
    m_Data: {fileID: -39983623799505075, guid: fc584d329b77b9545b9c9c8bb829e553, type: 3}
  - m_RefCount: 1
    m_Data: {fileID: 6999343348047764492, guid: fc584d329b77b9545b9c9c8bb829e553,
      type: 3}
  - m_RefCount: 1
    m_Data: {fileID: -6933530849576539303, guid: fc584d329b77b9545b9c9c8bb829e553,
      type: 3}
  - m_RefCount: 1
    m_Data: {fileID: -8849650766351124748, guid: fc584d329b77b9545b9c9c8bb829e553,
      type: 3}
  - m_RefCount: 1
    m_Data: {fileID: 5344191953466923600, guid: fc584d329b77b9545b9c9c8bb829e553,
      type: 3}
  - m_RefCount: 1
    m_Data: {fileID: 2110485755423906440, guid: fc584d329b77b9545b9c9c8bb829e553,
      type: 3}
  - m_RefCount: 1
    m_Data: {fileID: 611278257802682203, guid: fc584d329b77b9545b9c9c8bb829e553, type: 3}
  - m_RefCount: 1
    m_Data: {fileID: 8568688612705805593, guid: fc584d329b77b9545b9c9c8bb829e553,
      type: 3}
  - m_RefCount: 1
    m_Data: {fileID: -4293226751833479062, guid: fc584d329b77b9545b9c9c8bb829e553,
      type: 3}
  - m_RefCount: 1
    m_Data: {fileID: -531863552409210314, guid: fc584d329b77b9545b9c9c8bb829e553,
      type: 3}
  - m_RefCount: 1
    m_Data: {fileID: 3220740477721170248, guid: fc584d329b77b9545b9c9c8bb829e553,
      type: 3}
  - m_RefCount: 1
    m_Data: {fileID: -8232957222563989430, guid: fc584d329b77b9545b9c9c8bb829e553,
      type: 3}
  - m_RefCount: 1
    m_Data: {fileID: 3581976363580684779, guid: fc584d329b77b9545b9c9c8bb829e553,
      type: 3}
  - m_RefCount: 1
    m_Data: {fileID: 8137121077619138534, guid: fc584d329b77b9545b9c9c8bb829e553,
      type: 3}
  - m_RefCount: 1
    m_Data: {fileID: -4450007684230045513, guid: fc584d329b77b9545b9c9c8bb829e553,
      type: 3}
  - m_RefCount: 1
    m_Data: {fileID: 368488948622713827, guid: fc584d329b77b9545b9c9c8bb829e553, type: 3}
  - m_RefCount: 1
    m_Data: {fileID: -1652666043038260038, guid: fc584d329b77b9545b9c9c8bb829e553,
      type: 3}
  - m_RefCount: 1
    m_Data: {fileID: -3581127029532586042, guid: fc584d329b77b9545b9c9c8bb829e553,
      type: 3}
  - m_RefCount: 1
    m_Data: {fileID: -1130122408560378385, guid: fc584d329b77b9545b9c9c8bb829e553,
      type: 3}
  - m_RefCount: 1
    m_Data: {fileID: 1383883272258276261, guid: fc584d329b77b9545b9c9c8bb829e553,
      type: 3}
  - m_RefCount: 1
    m_Data: {fileID: -5125620877619029284, guid: fc584d329b77b9545b9c9c8bb829e553,
      type: 3}
  - m_RefCount: 1
    m_Data: {fileID: -7056944154279210060, guid: fc584d329b77b9545b9c9c8bb829e553,
      type: 3}
  - m_RefCount: 1
    m_Data: {fileID: -9178860142635623461, guid: fc584d329b77b9545b9c9c8bb829e553,
      type: 3}
  - m_RefCount: 1
    m_Data: {fileID: -5377211804188701585, guid: fc584d329b77b9545b9c9c8bb829e553,
      type: 3}
  - m_RefCount: 1
    m_Data: {fileID: -3332869691567337552, guid: fc584d329b77b9545b9c9c8bb829e553,
      type: 3}
  - m_RefCount: 1
    m_Data: {fileID: -7839824748867068813, guid: fc584d329b77b9545b9c9c8bb829e553,
      type: 3}
  - m_RefCount: 1
    m_Data: {fileID: 4860222720029096845, guid: fc584d329b77b9545b9c9c8bb829e553,
      type: 3}
  - m_RefCount: 1
    m_Data: {fileID: -8908544382962373700, guid: fc584d329b77b9545b9c9c8bb829e553,
      type: 3}
  - m_RefCount: 1
    m_Data: {fileID: 2534797647697017659, guid: fc584d329b77b9545b9c9c8bb829e553,
      type: 3}
  - m_RefCount: 1
    m_Data: {fileID: -701145450088738326, guid: fc584d329b77b9545b9c9c8bb829e553,
      type: 3}
  - m_RefCount: 1
    m_Data: {fileID: -7280874316543817821, guid: fc584d329b77b9545b9c9c8bb829e553,
      type: 3}
  - m_RefCount: 1
    m_Data: {fileID: 7816257180041521445, guid: fc584d329b77b9545b9c9c8bb829e553,
      type: 3}
  - m_RefCount: 1
    m_Data: {fileID: 4218957088357342075, guid: fc584d329b77b9545b9c9c8bb829e553,
      type: 3}
  - m_RefCount: 1
    m_Data: {fileID: -1647121858502193189, guid: fc584d329b77b9545b9c9c8bb829e553,
      type: 3}
  - m_RefCount: 1
    m_Data: {fileID: 3045001923454373135, guid: fc584d329b77b9545b9c9c8bb829e553,
      type: 3}
  - m_RefCount: 1
    m_Data: {fileID: 6046465229504819404, guid: fc584d329b77b9545b9c9c8bb829e553,
      type: 3}
  - m_RefCount: 1
    m_Data: {fileID: 146925484895311433, guid: fc584d329b77b9545b9c9c8bb829e553, type: 3}
  - m_RefCount: 1
    m_Data: {fileID: 3895720443503238059, guid: fc584d329b77b9545b9c9c8bb829e553,
      type: 3}
  - m_RefCount: 1
    m_Data: {fileID: -9019234469899804686, guid: fc584d329b77b9545b9c9c8bb829e553,
      type: 3}
  - m_RefCount: 1
    m_Data: {fileID: 3666724916130892037, guid: fc584d329b77b9545b9c9c8bb829e553,
      type: 3}
  - m_RefCount: 1
    m_Data: {fileID: 4557074923728586563, guid: fc584d329b77b9545b9c9c8bb829e553,
      type: 3}
  - m_RefCount: 1
    m_Data: {fileID: -4531858634233595940, guid: fc584d329b77b9545b9c9c8bb829e553,
      type: 3}
  - m_RefCount: 1
    m_Data: {fileID: -9185552814043747542, guid: fc584d329b77b9545b9c9c8bb829e553,
      type: 3}
  - m_RefCount: 1
    m_Data: {fileID: -8204820221692255543, guid: fc584d329b77b9545b9c9c8bb829e553,
      type: 3}
  - m_RefCount: 1
    m_Data: {fileID: -6233458931719022677, guid: fc584d329b77b9545b9c9c8bb829e553,
      type: 3}
  - m_RefCount: 1
    m_Data: {fileID: 1154340479819735195, guid: fc584d329b77b9545b9c9c8bb829e553,
      type: 3}
  - m_RefCount: 1
    m_Data: {fileID: 4778045797586685428, guid: fc584d329b77b9545b9c9c8bb829e553,
      type: 3}
  - m_RefCount: 1
    m_Data: {fileID: 6636356914981313421, guid: fc584d329b77b9545b9c9c8bb829e553,
      type: 3}
  - m_RefCount: 1
    m_Data: {fileID: 1686551188809007541, guid: fc584d329b77b9545b9c9c8bb829e553,
      type: 3}
  - m_RefCount: 1
    m_Data: {fileID: -5930776587842900371, guid: fc584d329b77b9545b9c9c8bb829e553,
      type: 3}
  - m_RefCount: 1
    m_Data: {fileID: -130104546997218819, guid: fc584d329b77b9545b9c9c8bb829e553,
      type: 3}
  - m_RefCount: 1
    m_Data: {fileID: -557614441817400054, guid: fc584d329b77b9545b9c9c8bb829e553,
      type: 3}
  - m_RefCount: 1
    m_Data: {fileID: -4356087948441045522, guid: fc584d329b77b9545b9c9c8bb829e553,
      type: 3}
  - m_RefCount: 1
    m_Data: {fileID: 2379953761323448013, guid: fc584d329b77b9545b9c9c8bb829e553,
      type: 3}
  - m_RefCount: 1
    m_Data: {fileID: -8392802036319243359, guid: fc584d329b77b9545b9c9c8bb829e553,
      type: 3}
  - m_RefCount: 1
    m_Data: {fileID: 3768474000973419263, guid: fc584d329b77b9545b9c9c8bb829e553,
      type: 3}
  - m_RefCount: 1
    m_Data: {fileID: -7876864015116417812, guid: fc584d329b77b9545b9c9c8bb829e553,
      type: 3}
  - m_RefCount: 1
    m_Data: {fileID: 2460501278191033764, guid: fc584d329b77b9545b9c9c8bb829e553,
      type: 3}
  - m_RefCount: 1
    m_Data: {fileID: 6516917985212256981, guid: fc584d329b77b9545b9c9c8bb829e553,
      type: 3}
  - m_RefCount: 1
    m_Data: {fileID: 2870588770018888475, guid: fc584d329b77b9545b9c9c8bb829e553,
      type: 3}
  - m_RefCount: 1
    m_Data: {fileID: 6172093022122347682, guid: fc584d329b77b9545b9c9c8bb829e553,
      type: 3}
  - m_RefCount: 1
    m_Data: {fileID: -4745629342412378363, guid: fc584d329b77b9545b9c9c8bb829e553,
      type: 3}
  - m_RefCount: 1
    m_Data: {fileID: -796906297672391504, guid: fc584d329b77b9545b9c9c8bb829e553,
      type: 3}
  - m_RefCount: 1
    m_Data: {fileID: 517537040645658821, guid: fc584d329b77b9545b9c9c8bb829e553, type: 3}
  - m_RefCount: 1
    m_Data: {fileID: 2348904716778239224, guid: fc584d329b77b9545b9c9c8bb829e553,
      type: 3}
  - m_RefCount: 1
    m_Data: {fileID: 6364211675350883068, guid: fc584d329b77b9545b9c9c8bb829e553,
      type: 3}
  - m_RefCount: 1
    m_Data: {fileID: -4506956802181919417, guid: fc584d329b77b9545b9c9c8bb829e553,
      type: 3}
  - m_RefCount: 1
    m_Data: {fileID: -8554552240816166350, guid: fc584d329b77b9545b9c9c8bb829e553,
      type: 3}
  - m_RefCount: 1
    m_Data: {fileID: 5155531445672774593, guid: fc584d329b77b9545b9c9c8bb829e553,
      type: 3}
  - m_RefCount: 1
    m_Data: {fileID: -8283946481429751769, guid: fc584d329b77b9545b9c9c8bb829e553,
      type: 3}
  - m_RefCount: 1
    m_Data: {fileID: 1437503401646794464, guid: fc584d329b77b9545b9c9c8bb829e553,
      type: 3}
  - m_RefCount: 1
    m_Data: {fileID: -8608529027667364052, guid: fc584d329b77b9545b9c9c8bb829e553,
      type: 3}
  - m_RefCount: 1
    m_Data: {fileID: -984624906782596688, guid: fc584d329b77b9545b9c9c8bb829e553,
      type: 3}
  - m_RefCount: 1
    m_Data: {fileID: -3935483887006374238, guid: fc584d329b77b9545b9c9c8bb829e553,
      type: 3}
  - m_RefCount: 1
    m_Data: {fileID: 9178892520020476994, guid: fc584d329b77b9545b9c9c8bb829e553,
      type: 3}
  - m_RefCount: 1
    m_Data: {fileID: -144014455013166516, guid: fc584d329b77b9545b9c9c8bb829e553,
      type: 3}
  - m_RefCount: 1
    m_Data: {fileID: -3253207453764529203, guid: fc584d329b77b9545b9c9c8bb829e553,
      type: 3}
  - m_RefCount: 1
    m_Data: {fileID: -7168242779200424501, guid: fc584d329b77b9545b9c9c8bb829e553,
      type: 3}
  - m_RefCount: 1
    m_Data: {fileID: -8219376919472097953, guid: fc584d329b77b9545b9c9c8bb829e553,
      type: 3}
  - m_RefCount: 1
    m_Data: {fileID: 5344690722283713150, guid: fc584d329b77b9545b9c9c8bb829e553,
      type: 3}
  - m_RefCount: 1
    m_Data: {fileID: 5394353238224683576, guid: fc584d329b77b9545b9c9c8bb829e553,
      type: 3}
  - m_RefCount: 1
    m_Data: {fileID: 8028931387866111178, guid: fc584d329b77b9545b9c9c8bb829e553,
      type: 3}
  - m_RefCount: 1
    m_Data: {fileID: 2961677793244026094, guid: fc584d329b77b9545b9c9c8bb829e553,
      type: 3}
  - m_RefCount: 1
    m_Data: {fileID: -2580880771318319752, guid: fc584d329b77b9545b9c9c8bb829e553,
      type: 3}
  - m_RefCount: 1
    m_Data: {fileID: -2266960901078078804, guid: fc584d329b77b9545b9c9c8bb829e553,
      type: 3}
  - m_RefCount: 1
    m_Data: {fileID: 4320056378629417345, guid: fc584d329b77b9545b9c9c8bb829e553,
      type: 3}
  - m_RefCount: 1
    m_Data: {fileID: 0}
  - m_RefCount: 1
    m_Data: {fileID: 21300000, guid: f7472d29deaa7414abffd38318319096, type: 3}
  - m_RefCount: 1
    m_Data: {fileID: 21300000, guid: 48fd9917466ade44fa9bfd8326fab049, type: 3}
  - m_RefCount: 1
    m_Data: {fileID: 4303423874142921733, guid: 6ed38972fd0f4024c91aca33394d3cdd,
      type: 3}
  - m_RefCount: 1
    m_Data: {fileID: 7370585508839877132, guid: 6ed38972fd0f4024c91aca33394d3cdd,
      type: 3}
  - m_RefCount: 1
    m_Data: {fileID: 18105601139653782, guid: 6ed38972fd0f4024c91aca33394d3cdd, type: 3}
  - m_RefCount: 1
    m_Data: {fileID: 4110720337494812178, guid: 6ed38972fd0f4024c91aca33394d3cdd,
      type: 3}
  - m_RefCount: 1
    m_Data: {fileID: 0}
  - m_RefCount: 1
    m_Data: {fileID: 21300000, guid: da2176ef0629bfd42958a94b2bf225a4, type: 3}
  - m_RefCount: 1
    m_Data: {fileID: 21300000, guid: fae8cd3e9d0604347a6c431f8e16a908, type: 3}
  m_TileMatrixArray:
  - m_RefCount: 154
    m_Data:
      e00: 1
      e01: 0
      e02: 0
      e03: 0
      e10: 0
      e11: 1
      e12: 0
      e13: 0
      e20: 0
      e21: 0
      e22: 1
      e23: 0
      e30: 0
      e31: 0
      e32: 0
      e33: 1
  m_TileColorArray:
  - m_RefCount: 152
    m_Data: {r: 1, g: 1, b: 1, a: 1}
  - m_RefCount: 1
    m_Data: {r: 0.8469016, g: 0.44429722, b: 0.5671708, a: 1}
  - m_RefCount: 1
    m_Data: {r: 0.9547215, g: 0.6632229, b: 0.74009305, a: 1}
  m_TileObjectToInstantiateArray: []
  m_AnimationFrameRate: 1
  m_Color: {r: 1, g: 1, b: 1, a: 1}
  m_Origin: {x: -3, y: -16, z: 0}
  m_Size: {x: 23, y: 20, z: 1}
  m_TileAnchor: {x: 0.5, y: 0.5, z: 0}
  m_TileOrientation: 0
  m_TileOrientationMatrix:
    e00: 1
    e01: 0
    e02: 0
    e03: 0
    e10: 0
    e11: 1
    e12: 0
    e13: 0
    e20: 0
    e21: 0
    e22: 1
    e23: 0
    e30: 0
    e31: 0
    e32: 0
    e33: 1
--- !u!483693784 &3274648055540863875
TilemapRenderer:
  m_ObjectHideFlags: 0
  m_CorrespondingSourceObject: {fileID: 0}
  m_PrefabInstance: {fileID: 0}
  m_PrefabAsset: {fileID: 0}
  m_GameObject: {fileID: 7629954787591167128}
  m_Enabled: 0
  m_CastShadows: 0
  m_ReceiveShadows: 0
  m_DynamicOccludee: 0
  m_MotionVectors: 1
  m_LightProbeUsage: 0
  m_ReflectionProbeUsage: 0
  m_RayTracingMode: 0
  m_RenderingLayerMask: 1
  m_RendererPriority: 0
  m_Materials:
  - {fileID: 10754, guid: 0000000000000000f000000000000000, type: 0}
  m_StaticBatchInfo:
    firstSubMesh: 0
    subMeshCount: 0
  m_StaticBatchRoot: {fileID: 0}
  m_ProbeAnchor: {fileID: 0}
  m_LightProbeVolumeOverride: {fileID: 0}
  m_ScaleInLightmap: 1
  m_ReceiveGI: 1
  m_PreserveUVs: 0
  m_IgnoreNormalsForChartDetection: 0
  m_ImportantGI: 0
  m_StitchLightmapSeams: 1
  m_SelectedEditorRenderState: 0
  m_MinimumChartSize: 4
  m_AutoUVMaxDistance: 0.5
  m_AutoUVMaxAngle: 89
  m_LightmapParameters: {fileID: 0}
  m_SortingLayerID: 0
  m_SortingLayer: 0
  m_SortingOrder: 0
  m_ChunkSize: {x: 32, y: 32, z: 32}
  m_ChunkCullingBounds: {x: 1.1875, y: 1.125, z: 0}
  m_MaxChunkCount: 16
  m_MaxFrameAge: 16
  m_SortOrder: 0
  m_Mode: 0
  m_DetectChunkCullingBounds: 0
  m_MaskInteraction: 0
--- !u!1 &8372488724375410469
GameObject:
  m_ObjectHideFlags: 0
  m_CorrespondingSourceObject: {fileID: 0}
  m_PrefabInstance: {fileID: 0}
  m_PrefabAsset: {fileID: 0}
  serializedVersion: 6
  m_Component:
  - component: {fileID: 195592254174740311}
  - component: {fileID: 1358799247368041718}
  m_Layer: 31
  m_Name: Background Palette
  m_TagString: Untagged
  m_Icon: {fileID: 0}
  m_NavMeshLayer: 0
  m_StaticEditorFlags: 0
  m_IsActive: 1
--- !u!4 &195592254174740311
Transform:
  m_ObjectHideFlags: 0
  m_CorrespondingSourceObject: {fileID: 0}
  m_PrefabInstance: {fileID: 0}
  m_PrefabAsset: {fileID: 0}
  m_GameObject: {fileID: 8372488724375410469}
  m_LocalRotation: {x: 0, y: 0, z: 0, w: 1}
  m_LocalPosition: {x: 0, y: 0, z: 0}
  m_LocalScale: {x: 1, y: 1, z: 1}
  m_Children:
  - {fileID: 8637606315999378471}
  m_Father: {fileID: 0}
  m_RootOrder: 0
  m_LocalEulerAnglesHint: {x: 0, y: 0, z: 0}
--- !u!156049354 &1358799247368041718
Grid:
  m_ObjectHideFlags: 0
  m_CorrespondingSourceObject: {fileID: 0}
  m_PrefabInstance: {fileID: 0}
  m_PrefabAsset: {fileID: 0}
  m_GameObject: {fileID: 8372488724375410469}
  m_Enabled: 1
  m_CellSize: {x: 3.375, y: 3.25, z: 0}
  m_CellGap: {x: 0, y: 0, z: 0}
  m_CellLayout: 0
  m_CellSwizzle: 0
--- !u!114 &4205726105288712760
MonoBehaviour:
  m_ObjectHideFlags: 0
  m_CorrespondingSourceObject: {fileID: 0}
  m_PrefabInstance: {fileID: 0}
  m_PrefabAsset: {fileID: 0}
  m_GameObject: {fileID: 0}
  m_Enabled: 1
  m_EditorHideFlags: 0
  m_Script: {fileID: 12395, guid: 0000000000000000e000000000000000, type: 0}
  m_Name: Palette Settings
  m_EditorClassIdentifier: 
  cellSizing: 0
